marblehead_west_conquest = {
	slot = 1
	generic = no
	ai = yes
	potential = {
		OR = {
			tag = U15
			AND = {
				tag = F78
				was_tag = U15
			}
		}
	}
	has_country_shield = yes

	U15_reinvent_the_boat = {
		icon = mission_junk_boat
		required_missions = {
		}
		position = 1

		trigger = {
			navy_size_percentage = 0.80
			dip_tech = 3
			if = {
				limit = { ai = no }
				advisor = naval_reformer
			}
		}

		effect = {
			add_country_modifier = {
				name = "marblehead_boats"
				duration = 9125
			}
		}
	}

	U15_what_we_razed = {
		icon = mission_burning_castle
		required_missions = { U15_reinvent_the_boat U15_finishing_the_job
		}
		position = 2
		
		provinces_to_highlight = {
			OR = {
				country_or_non_sovereign_subject_holds = ROOT
			}
			AND = {
				devastation = 1
			}
		}
		
		trigger = {
			num_of_owned_provinces_with = {
				value = 5
				OR = {
					area = magairous_area
					area = aqatbahar_area
				}
				has_dock_building_trigger = yes
			}
			all_owned_province = {
				NOT = { devastation = 1 }
			}
		}

		effect = {
			every_owned_province = {
				limit = {
					OR = {
						area = magairous_area
						area = aqatbahar_area
					}
				}
				add_base_production = 1
			}
			if = {
				limit = {
					533 = { owned_by = U15 }
				}
				533 = {
					add_goblin_minority_size_effect = yes
					add_base_production = 2
				}

			}
		}
	}

	U15_two_cities = {
		icon = mission_cromandel_coast
		required_missions = { U15_landshark U15_what_we_razed
		}
		position = 4
		provinces_to_highlight = {
			OR = {
				province_id = 521
				province_id = 516
			}
			NOT = {
				country_or_non_sovereign_subject_holds = ROOT
			}
		}
		trigger = {
			521 = {
				owned_by = ROOT
				is_core = ROOT
			}
			516 = {
				owned_by = ROOT
				is_core = ROOT
			}
			accepted_culture = bahari
			accepted_culture = crathanori
			NOT = { num_of_rebel_controlled_provinces = 1 }
		}

		effect = {
			521 = {
				add_goblin_minority_size_effect = yes
				add_nationalism = -5
			}
			516 = {
				add_goblin_minority_size_effect = yes
				add_nationalism = -5
			}
			change_government_reform_progress = 50
		}
	}

	U15_elves = {
		icon = mission_monarch_in_throne_room
		required_missions = {
		}
		position = 5

		trigger = {
			accepted_culture = sun_elf
			owns_all_provinces = {
				culture = sun_elf
				region = bahar_region
			}
			employed_advisor = { culture = sun_elf }
			OR = {
				medium_tolerance_elven_race_trigger = yes
				high_tolerance_elven_race_trigger = yes
			}
		}

		effect = {
			decrease_monstrous_3 = yes								add_country_modifier = {
				name = "marblehead_elven_advisors"
				duration = -1
			}
		}
	}
}

marblehead_near_west = {
	slot = 2
	generic = no
	ai = yes
	potential = {
		OR = {
			tag = U15
			AND = {
				tag = F78
				was_tag = U15
			}
		}
	}
	has_country_shield = yes

	U15_finishing_the_job = {
		icon = mission_sunset
		required_missions = {
		}
		position = 1

		trigger = {
			num_of_admirals = 1
			OR = {
				U19 = {
					OR = {
						NOT = { exists = yes }
						NOT = { is_subject = yes }
					}
				}
			}
		}

		effect = {
			magairous_area = {
				limit = {
					NOT = { is_core = ROOT }
					NOT = { owned_by = ROOT }
				}
				add_permanent_claim = ROOT
			}
			542 = { add_permanent_claim = ROOT }
		}
	}

	U15_dartax_is_cringe = {
		icon = mission_sun_temple
		required_missions = { U15_finishing_the_job
		}
		position = 2

		trigger = {
			OR = {
				F22 = {
					exists = yes
					has_spy_network_from = {
						who = ROOT
						value = 35
					}
				}
				AND = {
					F22 = { exists = no }
					any_owned_province = { 
						religion = old_bulwari_sun_cult 
					}
				}
			}
		}

		effect = {
			bahar_szel_uak_area = {
				limit = {
					NOT = { is_core = ROOT }
					NOT = { owned_by = ROOT }
				}
				add_permanent_claim = ROOT
			}
			651 = { add_permanent_claim = ROOT }
			657 = { add_permanent_claim = ROOT }
			658 = { add_permanent_claim = ROOT }
			if = {
				limit = { 
					F22 = { exists = yes } 
				}
				country_event =  {
					id = exodus_goblin_flavour.3
				}
				hidden_effect = { 
					add_spy_network_in = { 
						WHO = F22 
						value = -35 
					} 
				}
			}
			else = { 
				country_event = {
					id = exodus_goblin_flavour.5
				}
			}
		}
	}

	U15_landshark = {
		icon = mission_establish_high_seas_navy
		required_missions = { U15_grand_capital
		}
		position = 3
		provinces_to_highlight = {
			OR = {
				is_core = U11
			}
			NOT = {
				country_or_non_sovereign_subject_holds = ROOT
			}
		}
		trigger = {
			U11 = {
				OR = {
					AND = {
						is_subject_of = ROOT
						NOT = { liberty_desire = 50 }
					}
					NOT = { exists = yes }
				}
			}
			owns_all_provinces = {
				is_core = U11
			}
			navy_size = 25
		}

		effect = {
			change_dip = 1
			536 = {
				add_unit_construction = {
    						type = galley
    						amount = 3
						cost = 0
    						speed = 1
				}
			}
			reuyel_area = {
				limit = {
					NOT = { is_core = ROOT }
					NOT = { owned_by = ROOT }
				}
				add_permanent_claim = ROOT
			}
			crathanor_area = {
				limit = {
					NOT = { is_core = ROOT }
					NOT = { owned_by = ROOT }
				}
				add_permanent_claim = ROOT
			}
			custom_tooltip = marblehead_inherit_tt
			hidden_effect = {
				if = {
					limit = {
						U11 = { is_subject_of = ROOT }
					}
					inherit = U11
				}
			}	
		}
	}

	U15_elven_design = {
		icon = mission_naval_dominance
		required_missions = { U15_landshark
		}
		position = 4

		trigger = {
			custom_trigger_tooltip = {
				tooltip = semi_or_non_monstrous_tt
				OR = {
					has_country_flag = semi_monstrous
					has_country_flag = no_longer_monstrous
					NOT = { has_country_modifier = monstrous_nation }
				}
			}
			OR = {
				medium_tolerance_elven_race_trigger = yes
				high_tolerance_elven_race_trigger = yes
			}
			num_of_owned_provinces_with = {
				value = 5
				OR = {
					culture = sun_elf
					has_elven_minority_trigger = yes
				}
				has_shipyard_building_trigger = yes
			}
		}

		effect = {
			small_increase_of_elven_tolerance_effect = yes
			add_dip_tech = 1
			define_advisor = {
				type = naval_reformer
				name = "Radin szel-Aqatbar"
				skill = 1
				culture = sun_elf
				religion = bulwari_sun_cult
				discount = yes
			}
		}
	}

	U15_dwarves = {
		icon = mission_jawal_silver_mine
		required_missions = {
		}
		position = 5
		
		trigger = {
			526 = {
				is_core = ROOT
				NOT = {
					has_province_modifier = ruined_hold
					has_province_modifier = partially_ruined_hold
					has_province_modifier = damaged_hold
				}
				culture = copper_dwarf
				local_autonomy = 50
			}
			employed_advisor = { culture = copper_dwarf }
		}

		effect = {
			decrease_monstrous_3 = yes
			add_country_modifier = {
				name = "marblehead_dwarven_advisors"
				duration = -1
			}
		}
	}
}

marblehead_central = {
	slot = 3
	generic = no
	ai = yes
	potential = {
		OR = {
			tag = U15
			AND = {
				tag = F78
				was_tag = U15
			}
		}
	}
	has_country_shield = yes

	U15_proclamation = {
		icon = mission_crowning
		required_missions = {
		}
		position = 1
		provinces_to_highlight = {
			OR = {
				province_id = 536
			}
			NOT = {
				country_or_non_sovereign_subject_holds = ROOT
			}
		}
		trigger = {
			is_at_war = no
			if = {
				limit = { ai = no } #I don't trust ai to stab up
				stability = 1
			}
			536 = { owned_by = ROOT }
			OR = {
				is_year = 1464
				AND = {
					U19 = { exists = no }
					F34 = { exists = no }
				}
			}
		}

		effect = {
			country_event = {
				id = exodus_goblin_flavour.2
			}
			U11 = {
				country_event = {
					id = exodus_goblin_flavour.2
				}
			}
			U14 = {
				country_event = {
					id = exodus_goblin_flavour.2
				}
			}
			U13 = {
				country_event = {
					id = exodus_goblin_flavour.2
				}
			}
		}
	}

	U15_grand_capital = {
		icon = mission_early_game_buildings
		required_missions = { 	U15_proclamation U15_finishing_the_job 							U15_azka_evran
		}
		position = 2

		trigger = {
			536 = {
				owned_by = ROOT
				base_production = 10
				base_manpower = 5
				development = 30
				has_tax_building_trigger = yes
				has_trade_building_trigger = yes
				has_production_building_trigger = yes
			}
		}

		effect = {
			534 = { #Volnimestin
				add_base_tax = -1
				add_base_production = -1
				add_base_manpower = -1
			}
			537 = { #Medirudu
				add_base_tax = -1
				add_base_production = -1
				add_base_manpower = -1
			}
			536 = {
				add_base_tax = 2
				add_base_production = 2
				add_base_manpower = 2
				change_culture = exodus_goblin
				change_religion = ROOT
			}
			add_country_modifier = {
				name = "marblehead_grand_capital"
				duration = 9125
			}
			change_government_reform_progress = 50
		}
	}

	U15_mountainhugger = {
		icon = mission_cannons_firing
		required_missions = { U15_grand_capital
		}
		position = 3
		provinces_to_highlight = {
			OR = {
				is_core = U14
			}
			NOT = {
				country_or_non_sovereign_subject_holds = ROOT
			}
		}
		trigger = {
			num_of_artillery = 7
			U14 = {
				OR = {
					AND = {
						is_subject_of = ROOT
						NOT = { liberty_desire = 50 }
					}
					NOT = { exists = yes }
				}
			}
			owns_all_provinces = {
				is_core = U14
			}
		}

		effect = {
			change_mil = 1
			define_advisor = {
				type = fortification_expert
				name = "Syz As"
				skill = 2
				culture = exodus_goblin
				religion = goblin_shamanist
				discount = yes
			}
			tungr_mountains_area = {
				limit = {
					NOT = { is_core = ROOT }
					NOT = { owned_by = ROOT }
				}
				add_permanent_claim = ROOT
			}
			custom_tooltip = marblehead_inherit_tt
			hidden_effect = {
				if = {
					limit = {
						U14 = { is_subject_of = ROOT }
					}
					inherit = U14
				}
			}
		}
	}

	U15_sea_dwarves = {
		icon = mission_mountain_castle
		required_missions = { U15_mountainhugger
		}
		position = 4
		provinces_to_highlight = {
			OR = {
				area = tungr_mountains_area
				province_id = 2942
			}
			NOT = {
				country_or_non_sovereign_subject_holds = ROOT
				AND = {
					OR = {
						province_id = 2942
						province_id = 526
					}
					AND = {
						has_province_modifier = ruined_hold
						has_province_modifier = partially_ruined_hold
						has_province_modifier = damaged_hold
					}
				}
			}
		}
		trigger = {
			tungr_mountains_area = {
				type = all
				owned_by = ROOT
				is_core = ROOT
			}
			2942 = {
				OR = {
					owned_by = ROOT
					is_city = no
				}
			}
			OR = {
				526 = {
					NOT = {
						has_province_modifier = ruined_hold
						has_province_modifier = partially_ruined_hold
						has_province_modifier = damaged_hold
					}
				}
				2942 = {
					NOT = {
						has_province_modifier = ruined_hold
						has_province_modifier = partially_ruined_hold
						has_province_modifier = damaged_hold
					}
				}
			}
		}

		effect = {
			527 = { #Zlatikonu
				add_base_tax = -1
				add_base_production = -1
				add_base_manpower = -1
				remove_dwarven_minority_size_effect = yes
			}
			525 = { #Gordihr
				change_culture = exodus_goblin
				change_religion = ROOT
				add_base_tax = -1
				add_base_production = -1
				add_base_manpower = -1
				remove_dwarven_minority_size_effect = yes
			}
			526 = {
				add_base_tax = 1
				add_base_production = 1
				add_base_manpower = 1
				add_province_modifier = {
					name = marblehead_copper_autonomy
					duration = 12775
				}
			}
		}
	}

	U15_one_clan_to_rule_them_all = {
		icon = mission_empire
		required_missions = { U15_sea_dwarves U15_elven_design U15_forests
		}
		position = 5

		trigger = {
			NOT = {
				exists = U11
				exists = U13
				exists = U14
			}
			536 = {
				development = 45
				has_elven_minority_trigger = yes
				has_human_minority_trigger = yes
			}
			OR = {
				legitimacy = 100
				devotion = 100
				republican_tradition = 100
			}
		}

		effect = {
			add_country_modifier = {
				name = "marblehead_one_clan"
				duration = -1
			}
		}
	}
}

marblehead_near_east = {
	slot = 4
	generic = no
	ai = yes
	potential = {
		OR = {
			tag = U15
			AND = {
				tag = F78
				was_tag = U15
			}
		}
	}
	has_country_shield = yes

	U15_azka_evran = {
		icon = mission_conquer_5_states
		required_missions = {
		}
		position = 1

		trigger = {
			OR = {
				F34 = {	exists = no }
				ROOT = { is_rival = F34 }
			}
			num_of_generals = 1
		}

		effect = {
			540 = { add_permanent_claim = ROOT }
			539 = { add_permanent_claim = ROOT }
			538 = { add_permanent_claim = ROOT }
		}
	}

	U15_new_rulers = {
		icon = mission_monarch_diplomacy
		required_missions = { U15_azka_evran
		}
		position = 2
		provinces_to_highlight = {
			OR = {
				province_id = 540
				province_id = 539
				province_id = 538
				province_id = 542
				area = magairous_area
			}
			NOT = {
				country_or_non_sovereign_subject_holds = ROOT
			}
		}
		trigger = {
			NOT = {
				exists = F34
				exists = U19
			}
			magairous_area = {
				type = all
				owned_by = ROOT
				is_core = ROOT
			}
			540 = { 
				owned_by = ROOT
				is_core = ROOT
			}
			539 = { 
				owned_by = ROOT
				is_core = ROOT
			}
			538 = { 
				owned_by = ROOT
				is_core = ROOT
			}
			542 = { 
				owned_by = ROOT
				is_core = ROOT
			}
			OR = {
				medium_tolerance_human_race_trigger = yes
				high_tolerance_human_race_trigger = yes
			}
			adm_power = 150
		}

		effect = {
			add_adm_power = -150
			every_owned_province = {
				limit = { culture = bahari }
				add_nationalism = -5
			}
			541 = { remove_core = U19 }
			536 = { remove_core = U19 }
			535 = { remove_core = U19 }
		}
	}

	U15_greysheep = {
		icon = mission_hills_of_gondwana
		required_missions = { U15_grand_capital
		}
		position = 3
		provinces_to_highlight = {
			OR = {
				is_core = U13
			}
			NOT = {
				country_or_non_sovereign_subject_holds = ROOT
			}
		}
		trigger = {
			U13 = {
				OR = {
					AND = {
						is_subject_of = ROOT
						NOT = { liberty_desire = 50 }
					}
					NOT = { exists = yes }
				}
			}
			owns_all_provinces = {
				is_core = U13
			}
			536 = {
				trade_share = {
					country = ROOT
					share = 50
				}
			}
		}

		effect = {
			change_adm = 1
			add_yearly_manpower = 0.5
			harpylen_area = {
				limit = {
					NOT = { is_core = ROOT }
					NOT = { owned_by = ROOT }
				}
				add_permanent_claim = ROOT
			}
			alyzksaan_area = {
				limit = {
					NOT = { is_core = ROOT }
					NOT = { owned_by = ROOT }
				}
				add_permanent_claim = ROOT
			}
			custom_tooltip = marblehead_inherit_tt
			hidden_effect = {
				if = {
					limit = {
						U11 = { is_subject_of = ROOT }
					}
					inherit = U13
				}
			}
		}
	}

	U15_forests = {
		icon = mission_alone_in_the_wood
		required_missions = { U15_greysheep
		}
		position = 4

		trigger = {
			custom_trigger_tooltip = {
				tooltip = semi_or_non_monstrous_tt
				OR = {
					has_country_flag = semi_monstrous
					has_country_flag = no_longer_monstrous
					NOT = { has_country_modifier = monstrous_nation }
				}
			}
			num_of_owned_provinces_with = {
				value = 5
				OR = {
					has_terrain = forest
					has_terrain = woods
				}
				has_production_building_trigger = yes
				base_production = 10
			}
			treasury = 150
		}

		effect = {
			add_treasury = -150
			decrease_monstrous_2 = yes
			custom_tooltip = marblehead_timber_tt
			hidden_effect = {
				every_owned_province = {
					limit = {
						OR = {
							has_terrain = forest
							has_terrain = woods
						}
					}
					add_province_modifier = {
						name = marblehead_timber_time
						duration = 12775
					}
				}
			}

		}
	}

	U15_humans = {
		icon = mission_cope_with_refugees
		required_missions = {
		}
		position = 5

		trigger = {
			accepted_culture = bahari
			owns_all_provinces = {
				culture = bahari
				superregion = bulwar_superregion
			}
			high_tolerance_human_race_trigger = yes
		}

		effect = {
			decrease_monstrous_3 = yes
			add_country_modifier = {
				name = "marblehead_human_advisors"
				duration = -1
			}
		}
	}
}

marblehead_east = {
	slot = 5
	generic = no
	ai = yes
	potential = {
		OR = {
			tag = U15
			AND = {
				tag = F78
				was_tag = U15
			}
		}
	}
	has_country_shield = yes

	U15_the_marbleheads = {
		icon = mission_build_up_to_force_limit
		required_missions = {
		}
		position = 1

		trigger = {
			army_size_percentage = 1
			mil_tech = 3
			if = {
				limit = { ai = no }
			}
			has_mil_advisor = yes
		}

		effect = {
			add_country_modifier = {
				name = "marblehead_squared"
				duration = 9125
			}
		}
	}

	U15_our_own_coin = {
		icon = mission_african_gold
		required_missions = { U15_the_marbleheads U15_azka_evran
		}
		position = 2
		provinces_to_highlight = {
			OR = {
				province_id = 538
			}
			NOT = {
				country_or_non_sovereign_subject_holds = ROOT
				has_tax_building_trigger = yes
			}
		}
		trigger = {
			treasury = 100
			adm_power = 100
			OR = {
				advisor = master_of_mint
				AND = {
					corruption = 0
					inflation = 0
				}
			}
			538 = {
				owned_by = ROOT
				is_core = ROOT
				has_tax_building_trigger = yes
			}
		}

		effect = {
			538 = {
				add_goblin_minority_size_effect = yes
				add_permanent_province_modifier = {
						name = marblehead_coin
						duration = -1
				}
			}
		}
	}

	U15_harpylen = {
		icon = mission_female_throne
		required_missions = { U15_greysheep U15_our_own_coin
		}
		position = 4
		provinces_to_highlight = {
			OR = {
				province_id = 660
			}
			NOT = {
				country_or_non_sovereign_subject_holds = ROOT
				has_courthouse_building_trigger = yes
			}
		}
		trigger = {
			660 = {
				owned_by = ROOT
				is_core = ROOT
				has_courthouse_building_trigger = yes
			}
			F27 = {
				OR = {
					exists = no
					is_subject_of = ROOT
				}
			}
			is_female = no
		}

		effect = {
			country_event = {
				id = exodus_goblin_flavour.6
			}
		}
	}

	U15_harpies = {
		icon = mission_dual_diplomacy
		required_missions = {
		}
		position = 5

		trigger = {
			OR = {
				F27 = { 
					is_subject_of = ROOT 
					NOT = { liberty_desire = 50 }
					has_opinion = {
						who = ROOT
						value = 100
					}
				}
				AND = {
					F27 = { exists = no }
					accepted_culture = firanyan_harpy
					num_of_owned_provinces_with = {
						value = 5
						culture = firanyan_harpy
						NOT = { devastation = 1 }
						NOT = { unrest = 1 }
					}
				}
			}
		}

		effect = {
			medium_increase_of_harpy_tolerance_effect = yes
			add_country_modifier = {
				name = "marblehead_harpy_advisors"
				duration = -1
			}
		}
	}
}
