
g_snotfinger_column_4 = {
	slot = 4
	generic = no
	ai = yes
	potential = {
		tag = H89
		NOT = {
			has_country_modifier = allclan_split
		}
	}
	has_country_shield = yes

    g_the_runaway_slaves = {
		icon = mission_fortify_rajputana
		position = 1
		required_missions = {

		}
		trigger = {
			adm_power = 100
		}
		
		effect = {
			custom_tooltip = snotfinger_purge_tooltip
			add_adm_power = -100
			hidden_effect = {
				country_event = {
					id = racial_pop_events_orcish.14
				}	
				largest_decrease_of_orcish_tolerance_effect = yes
				add_country_modifier = { 
					name = racial_pop_orcish_purge
					duration = -1  
				}
				custom_tooltip = racial_pop_events_debug.3.tooltip
				custom_tooltip = racial_pop_events_debug.4.tooltip
			}
			hidden_effect = {
				every_owned_province = {
					limit = {
						has_small_orcish_minority_trigger = yes
					}
					add_unrest = 5
				}
				every_owned_province = {
					limit = {
						has_large_orcish_minority_trigger = yes
					}
					add_unrest = 7
				}
				every_owned_province = {
					limit = {
						has_orcish_majority_trigger = yes
					}
					add_unrest = 15
				}
			}
		}
	}
	g_the_new_menace = {
		icon = mission_fortify_rajputana
		position = 2
		required_missions = {
			g_the_runaway_slaves
		}
		trigger = {
			any_known_country = {
				OR = {
					culture_group = dwarven
					culture_group = orcish
				}
				war_with = FROM
			}
		}
		
		effect = {
			custom_tooltip = snotfinger_purge_tooltip
			hidden_effect = {
				country_event = { 
					id = racial_pop_events_orcish.14
				}	
				largest_decrease_of_orcish_tolerance_effect = yes
				add_country_modifier = { 
					name = racial_pop_orcish_purge
					duration = -1  
				}
				custom_tooltip = racial_pop_events_debug.3.tooltip
				custom_tooltip = racial_pop_events_debug.4.tooltip
			}
			hidden_effect = {
				every_owned_province = {
					limit = {
						has_small_orcish_minority_trigger = yes
					}
					add_unrest = 5
				}
				every_owned_province = {
					limit = {
						has_large_orcish_minority_trigger = yes
					}
					add_unrest = 7
				}
				every_owned_province = {
					limit = {
						has_orcish_majority_trigger = yes
					}
					add_unrest = 15
				}
			}
			add_country_modifier = {
				name = cave_goblin_the_silver_menace
				duration = 3650
			}
		}
	}
	g_never_again = {
		icon = mission_fortify_rajputana
		position = 3
		required_missions = {
			g_the_new_menace
		}
		trigger = {
			AND = {
				#army_size = 15
				army_size = H72
				army_size = H80
			}
			OR = {
				any_known_country = {
					tag = H72
				}
				H72 = { exists = no }
			}
			OR = {
				any_known_country = {
					tag = H80
				}
				H80 = { exists = no }
			}
			
		}
		
		effect = {
			custom_tooltip = snotfinger_purge_tooltip
			hidden_effect = {
				country_event = { 
					id = racial_pop_events_orcish.14
				}	
				largest_decrease_of_orcish_tolerance_effect = yes
				add_country_modifier = { 
					name = racial_pop_orcish_purge
					duration = -1  
				}
				custom_tooltip = racial_pop_events_debug.3.tooltip
				custom_tooltip = racial_pop_events_debug.4.tooltip
			}
			hidden_effect = {
				every_owned_province = {
					limit = {
						has_small_orcish_minority_trigger = yes
					}
					add_unrest = 5
				}
				every_owned_province = {
					limit = {
						has_large_orcish_minority_trigger = yes
					}
					add_unrest = 7
				}
				every_owned_province = {
					limit = {
						has_orcish_majority_trigger = yes
					}
					add_unrest = 15
				}
			}
			add_casus_belli = {
				target = H72
				type = cb_annex
				months = 240
			}
			add_casus_belli = {
				target = H80
				type = cb_annex
				months = 240
			}
		}
	}
	g_the_breakers_broken_and_the_crown_shattered = {
		icon = mission_fortify_rajputana
		position = 4
		required_missions = {
			g_never_again
		}
		trigger = {	
			H72 = { exists = no }
			H80 = { exists = no }
			owns = 4119
			owns = 4122
			owns = 4149
			owns = 4128
		}
		
		effect = {
			custom_tooltip = snotfinger_purge_tooltip
			hidden_effect = {
				country_event = { 
					id = racial_pop_events_orcish.14
				}	
				largest_decrease_of_orcish_tolerance_effect = yes
				add_country_modifier = { 
					name = racial_pop_orcish_purge
					duration = -1  
				}
				custom_tooltip = racial_pop_events_debug.3.tooltip
				custom_tooltip = racial_pop_events_debug.4.tooltip
			}
			hidden_effect = {
				every_owned_province = {
					limit = {
						has_small_orcish_minority_trigger = yes
					}
					add_unrest = 5
				}
				every_owned_province = {
					limit = {
						has_large_orcish_minority_trigger = yes
					}
					add_unrest = 7
				}
				every_owned_province = {
					limit = {
						has_orcish_majority_trigger = yes
					}
					add_unrest = 15
				}
			}
			every_owned_province = {
				limit = {
					culture_group = orcish
				}
				change_culture = cave_goblin
				change_religion = goblinic_shamanism
			}
			4119 = {
				add_scaled_local_adm_power = 10
				add_scaled_local_dip_power = 10
				add_scaled_local_mil_power = 10
				add_base_tax = -5
				add_base_production = -5
				add_base_manpower = -5
			}
			4122 = {
				add_scaled_local_adm_power = 10
				add_scaled_local_dip_power = 10
				add_scaled_local_mil_power = 10
				add_base_tax = -5
				add_base_production = -5
				add_base_manpower = -5
			}
			4149 = {
				add_scaled_local_adm_power = 10
				add_scaled_local_dip_power = 10
				add_scaled_local_mil_power = 10
				add_base_tax = -5
				add_base_production = -5
				add_base_manpower = -5
			}
			4128 = {
				add_scaled_local_adm_power = 10
				add_scaled_local_dip_power = 10
				add_scaled_local_mil_power = 10
				add_base_tax = -5
				add_base_production = -5
				add_base_manpower = -5
			}
		}
	}
	g_the_warriors_with_words = {
		icon = mission_fortify_rajputana
		position = 5
		required_missions = {
			g_the_breakers_broken_and_the_crown_shattered
		}
		trigger = {
			power_projection = 99
		}
		
		effect = {
			custom_tooltip = snotfinger_purge_tooltip
			hidden_effect = {
				country_event = { 
					id = racial_pop_events_orcish.14
				}	
				largest_decrease_of_orcish_tolerance_effect = yes
				add_country_modifier = { 
					name = racial_pop_orcish_purge
					duration = -1  
				}
				custom_tooltip = racial_pop_events_debug.3.tooltip
				custom_tooltip = racial_pop_events_debug.4.tooltip
			}
			hidden_effect = {
				every_owned_province = {
					limit = {
						has_small_orcish_minority_trigger = yes
					}
					add_unrest = 5
				}
				every_owned_province = {
					limit = {
						has_large_orcish_minority_trigger = yes
					}
					add_unrest = 7
				}
				every_owned_province = {
					limit = {
						has_orcish_majority_trigger = yes
					}
					add_unrest = 15
				}
			}
			add_country_modifier = {
				name = cave_goblin_snotfinger
				duration = -1
			}
			swap_free_idea_group = yes
			override_country_name = SLOZKLAN # Free Land
		}
	}
	g_all_orcs_must_die = {
		icon = mission_fortify_rajputana
		position = 6
		required_missions = {
			g_the_warriors_with_words
		}
		trigger = {
			mil_tech = 9
			adm_tech = 9
		}
		
		effect = {
			custom_tooltip = snotfinger_purge_tooltip
			hidden_effect = {
				country_event = { 
					id = racial_pop_events_orcish.14
				}	
				largest_decrease_of_orcish_tolerance_effect = yes
				add_country_modifier = { 
					name = racial_pop_orcish_purge
					duration = -1  
				}
				custom_tooltip = racial_pop_events_debug.3.tooltip
				custom_tooltip = racial_pop_events_debug.4.tooltip
			}
			hidden_effect = {
				every_owned_province = {
					limit = {
						has_small_orcish_minority_trigger = yes
					}
					add_unrest = 5
				}
				every_owned_province = {
					limit = {
						has_large_orcish_minority_trigger = yes
					}
					add_unrest = 7
				}
				every_owned_province = {
					limit = {
						has_orcish_majority_trigger = yes
					}
					add_unrest = 15
				}
			}
			add_country_modifier = {
				name = cave_goblin_kill_the_orcs
				duration = 7300
			}
			every_country = {
				limit = {
					culture_group = orcish
				}
				add_historical_rival = FROM
			}
		}
	}
	g_no_more_black_orcs = {
		icon = mission_fortify_rajputana
		position = 7
		required_missions = {
			g_all_orcs_must_die
		}
		trigger = {
			custom_trigger_tooltip = {
				tooltip = snotfinger_orcs_black_tooltip
				serpentspine = {
					NOT = {
						has_any_orcish_pop_trigger = yes
						culture_group = orcish
					}
					type = all
				}
			}
		}

		provinces_to_highlight = {
			continent = serpentspine
			has_any_orcish_pop_trigger = yes
			culture_group = orcish
		}
		
		effect = {
			custom_tooltip = snotfinger_purge_tooltip
			add_country_modifier = {
				name = cave_goblin_no_more_black_orcs
				duration = 7300
			}
			hidden_effect = {
				country_event = { 
					id = racial_pop_events_orcish.14
				}	
				largest_decrease_of_orcish_tolerance_effect = yes
				add_country_modifier = { 
					name = racial_pop_orcish_purge
					duration = -1  
				}
				custom_tooltip = racial_pop_events_debug.3.tooltip
				custom_tooltip = racial_pop_events_debug.4.tooltip
			}
			hidden_effect = {
				every_owned_province = {
					limit = {
						has_small_orcish_minority_trigger = yes
					}
					add_unrest = 5
				}
				every_owned_province = {
					limit = {
						has_large_orcish_minority_trigger = yes
					}
					add_unrest = 7
				}
				every_owned_province = {
					limit = {
						has_orcish_majority_trigger = yes
					}
					add_unrest = 15
				}
			}
		}
	}
	g_get_the_escanni_ones_too = {
		icon = mission_fortify_rajputana
		position = 1
		required_missions = {
			g_no_more_black_orcs
		}
		trigger = {
			custom_trigger_tooltip = {
				tooltip = snotfinger_orcs_escann_tooltip
				any_owned_province = {
					OR = {
						has_any_half_orcish_pop_trigger = yes
						culture = half_orc
						culture = grombar_half_orc
						culture = green_orc
						culture = gray_orc
						culture = emerald_orc
						culture = rugan_orc
						culture = ungulan_orc
						culture = barumand_orc
					}
				}
			}
		}
		
		effect = {
			custom_tooltip = snotfinger_purge_tooltip
			add_country_modifier = {
				name = cave_goblin_purging_escann
				duration = 18250
			}
			hidden_effect = {
				country_event = { 
					id = racial_pop_events_orcish.14
				}	
				largest_decrease_of_orcish_tolerance_effect = yes
				add_country_modifier = { 
					name = racial_pop_orcish_purge
					duration = -1  
				}
				custom_tooltip = racial_pop_events_debug.3.tooltip
				custom_tooltip = racial_pop_events_debug.4.tooltip
			}
			hidden_effect = {
				every_owned_province = {
					limit = {
						has_small_orcish_minority_trigger = yes
					}
					add_unrest = 5
				}
				every_owned_province = {
					limit = {
						has_large_orcish_minority_trigger = yes
					}
					add_unrest = 7
				}
				every_owned_province = {
					limit = {
						has_orcish_majority_trigger = yes
					}
					add_unrest = 15
				}
			}
		}
	}
	g_dont_let_the_ones_in_rahen_live = {
		icon = mission_fortify_rajputana
		position = 1
		required_missions = {
			g_get_the_escanni_ones_too
		}
		trigger = {
			custom_trigger_tooltip = {
				tooltip = snotfinger_orcs_rahen_tooltip
				OR = {
					any_owned_province = {
						culture = brown_orc
					}
				}
			}
		}
		
		effect = {
			custom_tooltip = snotfinger_purge_tooltip
			add_country_modifier = {
				name = cave_goblin_every_last_orc
				duration = 18250
			}
			hidden_effect = {
				country_event = { 
					id = racial_pop_events_orcish.14
				}	
				largest_decrease_of_orcish_tolerance_effect = yes
				add_country_modifier = { 
					name = racial_pop_orcish_purge
					duration = -1  
				}
				custom_tooltip = racial_pop_events_debug.3.tooltip
				custom_tooltip = racial_pop_events_debug.4.tooltip
			}
			hidden_effect = {
				every_owned_province = {
					limit = {
						has_small_orcish_minority_trigger = yes
					}
					add_unrest = 5
				}
				every_owned_province = {
					limit = {
						has_large_orcish_minority_trigger = yes
					}
					add_unrest = 7
				}
				every_owned_province = {
					limit = {
						has_orcish_majority_trigger = yes
					}
					add_unrest = 15
				}
			}
		}
	}
	g_the_job_is_done = {
		icon = mission_fortify_rajputana
		position = 1
		required_missions = {
			g_dont_let_the_ones_in_rahen_live
		}
		provinces_to_highlight = {
			NOT = {
				continent = north_america
				continent = south_america
			}
			has_any_orcish_pop_trigger = yes
			culture_group = orcish
			has_any_half_orcish_pop_trigger = yes
			culture = half_orc
			culture = grombar_half_orc
		}

		trigger = {
			custom_trigger_tooltip = {
				tooltip = snotfinger_orcs_dead_tooltip
				serpentspine = {
					NOT = {
						has_any_orcish_pop_trigger = yes
						culture_group = orcish
						has_any_half_orcish_pop_trigger = yes
						culture = half_orc
						culture = grombar_half_orc
					}
					type = all
				}
				europe = {
					NOT = {
						has_any_orcish_pop_trigger = yes
						culture_group = orcish
						has_any_half_orcish_pop_trigger = yes
						culture = half_orc
						culture = grombar_half_orc
					}
					type = all
				}
				asia = {
					NOT = {
						has_any_orcish_pop_trigger = yes
						culture_group = orcish
						has_any_half_orcish_pop_trigger = yes
						culture = half_orc
						culture = grombar_half_orc
					}
					type = all
				}
				africa = {
					NOT = {
						has_any_orcish_pop_trigger = yes
						culture_group = orcish
						has_any_half_orcish_pop_trigger = yes
						culture = half_orc
						culture = grombar_half_orc
					}
					type = all
				}
			}
		}
		
		effect = {
			custom_tooltip = snotfinger_purge_tooltip
			add_adm_power = 400
			add_country_modifier = {
				name = cave_goblin_all_orcs_dead
				duration = -1
			}
			hidden_effect = {
				country_event = { 
					id = racial_pop_events_orcish.14
				}	
				largest_decrease_of_orcish_tolerance_effect = yes
				add_country_modifier = { 
					name = racial_pop_orcish_purge
					duration = -1  
				}
				custom_tooltip = racial_pop_events_debug.3.tooltip
				custom_tooltip = racial_pop_events_debug.4.tooltip
			}
			hidden_effect = {
				every_owned_province = {
					limit = {
						has_small_orcish_minority_trigger = yes
					}
					add_unrest = 5
				}
				every_owned_province = {
					limit = {
						has_large_orcish_minority_trigger = yes
					}
					add_unrest = 7
				}
				every_owned_province = {
					limit = {
						has_orcish_majority_trigger = yes
					}
					add_unrest = 15
				}
			}
		}
	}
}


#these trees show up during the allclan civil war. Replaces generic resurce missions and special warband ones
#g_snotfinger_civil_war_region_column_4 = { #involves doing stuff with their spawn area
#	slot = 4
#	generic = no
#	ai = yes
#	potential = {
#		tag = H89
#		has_country_modifier = allclan_split
#	}
#	has_country_shield = yes
#
#    g_establishing_our_clan = {
#		icon = mission_fortify_rajputana
#		position = 1
#		required_missions = {
#
#		}
#		trigger = {
#			OR = {
#				has_country_modifier = allclan_split
#			}	
#		}
#		
#		effect = {
#
#		}
#	}
#}