
varamhar_1 = {
	slot = 1
	generic = no
	ai = yes
	potential = {
		OR = {
			tag = F42
			AND = {
				tag = F38
				was_tag = F42
			}
		}
	}
	has_country_shield = yes
	
	varamhar_winged_victory = {
		icon = mission_impaled_soldies
		required_missions = { }
		position = 1
		
		trigger = {
			army_size = F27
		}
		
		effect = {
			crelyore_ridge_area = {
				limit = {
					NOT = {
						owned_by = ROOT
						is_core = ROOT
					}
				}
				add_permanent_claim = ROOT
			}
			harpylen_area = {
				limit = {
					NOT = {
						owned_by = ROOT
						is_core = ROOT
					}
				}
				add_permanent_claim = ROOT
			}
			invaders_pass_area = {
				limit = {
					NOT = {
						owned_by = ROOT
						is_core = ROOT
					}
				}
				add_permanent_claim = ROOT
			}
		}
	}
	
	varamhar_a_secure_northern_flank = {
		icon = mission_conquer_mewar
		required_missions = { varamhar_winged_victory }
		position = 2
		
		provinces_to_highlight = {
			OR = {
				area = crelyore_ridge_area
			}
			NOT = {
				country_or_non_sovereign_subject_holds = ROOT
			}
		}
		
		trigger = {
			crelyore_ridge_area = {
				type = all
				country_or_non_sovereign_subject_holds = ROOT
			}
			666 = { fort_level = 2 }
		}
		
		effect = {
			add_stability_or_adm_power = yes
			bulwar_area = {
				limit = {
					NOT = {
						owned_by = ROOT
						is_core = ROOT
					}
				}
				add_permanent_claim = ROOT
			}
		}
	}
	
	varamhar_protector_of_bulwar = {
		icon = mission_gwalior_and_rathambore
		required_missions = { varamhar_a_secure_northern_flank }
		position = 3
		
		provinces_to_highlight = {
			OR = {
				province_id = 601
			}
			NOT = {
				country_or_non_sovereign_subject_holds = ROOT
			}
		}
		
		trigger = {
			601 = { country_or_non_sovereign_subject_holds = ROOT }
		}
		
		effect = {
			west_naza_area = {
				limit = {
					NOT = {
						owned_by = ROOT
						is_core = ROOT
					}
				}
				add_permanent_claim = ROOT
			}
			south_naza_area = {
				limit = {
					NOT = {
						owned_by = ROOT
						is_core = ROOT
					}
				}
				add_permanent_claim = ROOT
			}
			east_naza_area = {
				limit = {
					NOT = {
						owned_by = ROOT
						is_core = ROOT
					}
				}
				add_permanent_claim = ROOT
			}
			avamezan_area = {
				limit = {
					NOT = {
						owned_by = ROOT
						is_core = ROOT
					}
				}
				add_permanent_claim = ROOT
			}
			sareyand_area = {
				limit = {
					NOT = {
						owned_by = ROOT
						is_core = ROOT
					}
				}
				add_permanent_claim = ROOT
			}
			yrkur_area = {
				limit = {
					NOT = {
						owned_by = ROOT
						is_core = ROOT
					}
				}
				add_permanent_claim = ROOT
			}
			bulwar_area = {
				limit = {
					NOT = {
						owned_by = ROOT
						is_core = ROOT
					}
				}
				add_permanent_claim = ROOT
			}
			harklum_area = {
				limit = {
					NOT = {
						owned_by = ROOT
						is_core = ROOT
					}
				}
				add_permanent_claim = ROOT
			}
			middle_suran_area = {
				limit = {
					NOT = {
						owned_by = ROOT
						is_core = ROOT
					}
				}
				add_permanent_claim = ROOT
			}
		}
	}
	
	varamhar_control_over_the_plain = {
		icon = mission_bengal_campaign
		required_missions = { varamhar_protector_of_bulwar }
		position = 4
		
		provinces_to_highlight = {
			OR = {
				area = yrkur_area
				area = bulwar_area
				area = harklum_area
				area = middle_suran_area
			}
			NOT = {
				country_or_non_sovereign_subject_holds = ROOT
			}
		}
		
		trigger = {
			yrkur_area = {
				type = all
				country_or_non_sovereign_subject_holds = ROOT
			}
			bulwar_area = {
				type = all
				country_or_non_sovereign_subject_holds = ROOT
			}
			harklum_area = {
				type = all
				country_or_non_sovereign_subject_holds = ROOT
			}
			middle_suran_area = {
				type = all
				country_or_non_sovereign_subject_holds = ROOT
			}
		}
		
		effect = {
			bulwar_proper_region = {
				limit = {
					NOT = {
						owned_by = ROOT
						is_core = ROOT
					}
				}
				add_permanent_claim = ROOT
			}
		}
	}
	
	varamhar_the_white_phoenix_ascendant = {
		icon = mission_onward_to_gaur
		required_missions = { varamhar_control_over_the_plain varamhar_secure_the_east }
		position = 5
		
		provinces_to_highlight = {
			OR = {
				superregion = bulwar_superregion
			}
			NOT = {
				owned_by = ROOT
			}
		}
		
		trigger = {
			num_of_owned_provinces_with = {
				value = 50
				superregion = bulwar_superregion
			}
		}
		
		effect = {
			add_country_modifier = {
				name = varamhar_the_white_phoenix_ascendant
				duration = 9125
			}
		}
	}
	
}



varamhar_2 = {
	slot = 2
	generic = no
	ai = yes
	potential = {
		OR = {
			tag = F42
			AND = {
				tag = F38
				was_tag = F42
			}
		}
	}
	has_country_shield = yes
	
	varamhar_found_the_academy = {
		icon = mission_colonial
		required_missions = { }
		position = 1
		
		provinces_to_highlight = {
			province_id = 609
		}
		
		trigger = {
			owns_core_province = 609
			adm_power = 100
			dip_power = 100
			mil_power = 100
			treasury = 100
		}
		
		effect = {
			add_adm_power = -100
			add_dip_power = -100
			add_mil_power = -100
			add_treasury = -100
			
			609 = {
				add_building_construction = {
					building = university
					speed = 1
					cost = 0
				}
				add_permanent_province_modifier = {
					name = varamhar_the_varamhar_academy
					duration = -1
				}
			}
		}
	}
	
	varamhar_expand_the_academy = {
		icon = mission_develop_the_capital
		required_missions = { varamhar_found_the_academy }
		position = 2
		
		provinces_to_highlight = {
			province_id = 609
		}
		
		trigger = {
			owns_core_province = 609
			609 = {
				has_building = university
				has_building = mage_tower
			}
		}
		
		effect = {
			add_country_modifier = {
				name = varamhar_influx_of_magical_talent
				duration = 7300
			}
		}
	}
	
	varamhar_the_brightest_of_minds = {
		icon = mission_ahmadabad_paper
		required_missions = { varamhar_expand_the_academy }
		position = 3
		
		trigger = {
			court_mage = 3
			estate_loyalty = {
				estate = estate_mages
				loyalty = 60
			}
		}
		
		effect = {
			add_country_modifier = {
				name = varamhar_light_shed_on_issues
				duration = 7300
			}
		}
	}
	
	varamhar_secure_the_east = {
		icon = mission_rajputana_frontier
		required_missions = { varamhar_protector_of_bulwar }
		position = 4
		
		provinces_to_highlight = {
			OR = {
				area = west_naza_area
				area = south_naza_area
				area = east_naza_area
				area = north_naza_area
			}
			NOT = {
				country_or_non_sovereign_subject_holds = ROOT
			}
		}
		
		trigger = {
			west_naza_area = {
				type = all
				country_or_non_sovereign_subject_holds = ROOT
			}
			south_naza_area = {
				type = all
				country_or_non_sovereign_subject_holds = ROOT
			}
			east_naza_area = {
				type = all
				country_or_non_sovereign_subject_holds = ROOT
			}
			north_naza_area = {
				type = all
				country_or_non_sovereign_subject_holds = ROOT
			}
			OR = {
				625 = { country_or_non_sovereign_subject_holds = ROOT }
				625 = { owner = { NOT = { army_size = ROOT } } }
			}
		}
		
		effect = {
			far_bulwar_region = {
				limit = {
					NOT = {
						owned_by = ROOT
						is_core = ROOT
					}
				}
				add_permanent_claim = ROOT
			}
		}
	}
	
}



varamhar_3 = {
	slot = 3
	generic = no
	ai = yes
	potential = {
		OR = {
			tag = F42
			AND = {
				tag = F38
				was_tag = F42
			}
		}
	}
	has_country_shield = yes
	
	varamhar_centralize_mage_organisation = {
		icon = mission_indian_stateman
		required_missions = { }
		position = 1
		
		provinces_to_highlight = {
			
		}
		
		trigger = {
			has_estate_privilege = estate_mages_organization_state
			custom_trigger_tooltip = {
				tooltip = varamhar_rekindle_the_flame_happened_tt
				has_country_flag = varamhar_rekindle_the_flame_flag
			}
		}
		
		effect = {
			define_advisor = {
				type = court_mage
				skill = 1
				culture = sun_elf
				religion = bulwari_sun_cult
				discount = yes
			}
			
			add_stability = 1
		}
	}
	
	varamhar_initiate_project_divinity = {
		icon = mission_hands_praying
		required_missions = { varamhar_centralize_mage_organisation varamhar_found_the_academy varamhar_find_relics_of_power }
		position = 2
		
		provinces_to_highlight = {
			
		}
		
		trigger = {
			adm_power = 150
			dip_power = 150
			mil_power = 150
			owns_core_province = 609
		}
		
		effect = {
			add_adm_power = -150
			add_dip_power = -150
			add_mil_power = -150
			country_event = {
				id = varamhar_flavour.1
			}
			custom_tooltip = varamhar_estate_loyalty_tt
		}
	}
	
	varamhar_hypothesis_testing = {
		icon = balance_the_estates
		required_missions = { varamhar_initiate_project_divinity varamhar_expand_the_academy }
		position = 3
		
		provinces_to_highlight = {
			
		}
		
		trigger = {
			ruler_has_mage_personality = yes
			adm_power = 150
			dip_power = 150
			mil_power = 150
			has_country_modifier = varamhar_project_divinity_hypotheses_established
			owns_core_province = 609
		}
		
		effect = {
			add_adm_power = -150
			add_dip_power = -150
			add_mil_power = -150
			country_event = {
				id = varamhar_flavour.4
			}
			custom_tooltip = varamhar_estate_loyalty_tt
		}
	}
	
	varamhar_refine_theories = {
		icon = mission_asian_trader
		required_missions = { varamhar_hypothesis_testing varamhar_the_brightest_of_minds }
		position = 4
		
		provinces_to_highlight = {
			
		}
		
		trigger = {
			adm_power = 150
			dip_power = 150
			mil_power = 150
			has_country_modifier = varamhar_project_divinity_infusion_testing_completed
			owns_core_province = 609
		}
		
		effect = {
			add_adm_power = -150
			add_dip_power = -150
			add_mil_power = -150
			country_event = {
				id = varamhar_flavour.7
			}
			custom_tooltip = varamhar_estate_loyalty_tt
		}
	}
	
	varamhar_the_creation_of_a_god = {
		icon = mission_marriage
		required_missions = { varamhar_refine_theories varamhar_distil_divine_magic varamhar_secrets_of_the_cult }
		position = 5
		
		provinces_to_highlight = {
			
		}
		
		trigger = {
			adm = 6
			dip = 6
			mil = 6
			adm_power = 150
			dip_power = 150
			mil_power = 150
			has_country_modifier = varamhar_project_divinity_the_compendium
			owns_core_province = 609
		}
		
		effect = {
			add_adm_power = -150
			add_dip_power = -150
			add_mil_power = -150
			country_event = {
				id = varamhar_flavour.10
			}
			custom_tooltip = varamhar_estate_loyalty_tt
		}
	}
	
}



varamhar_4 = {
	slot = 4
	generic = no
	ai = yes
	potential = {
		OR = {
			tag = F42
			AND = {
				tag = F38
				was_tag = F42
			}
		}
	}
	has_country_shield = yes
	
	varamhar_find_relics_of_power = {
		icon = ark_of_the_covenant
		required_missions = { }
		position = 1
		
		provinces_to_highlight = {
			
		}
		
		trigger = {
			OR = {
				any_owned_province = {
					trade_goods = precursor_relics
				}
				AND = {
					adm_power = 50
					dip_power = 50
					years_of_income = 1
				}
			}
			custom_trigger_tooltip = {
				tooltip = varamhar_rekindle_the_flame_happened_tt
				has_country_flag = varamhar_rekindle_the_flame_flag
			}
		}
		
		effect = {
			if = {
				limit = {
					any_owned_province = {
						trade_goods = precursor_relics
					}
				}
				add_adm_power = 100
				add_dip_power = 100
			}
			else = {
				add_adm_power = -50
				add_dip_power = -50
				country_event = {
					id = varamhar_flavour.14
				}
			}
		}
	}
	
	varamhar_elemental_energy_storage = {
		icon = the_fountain_of_youth
		required_missions = { varamhar_find_relics_of_power }
		position = 2
		
		provinces_to_highlight = {
			
		}
		
		trigger = {
			natural_scientist = 1
			estate_loyalty = {
				estate = estate_mages
				loyalty = 50
			}
		}
		
		effect = {
			capital_scope = {
				add_permanent_province_modifier = {
					name = varamhar_magical_infrastructure_development
					duration = 9125
				}
			}
			
			custom_tooltip = varamhar_properly_advised_tt
			hidden_effect = {
				if = {
					limit = {
						natural_scientist = 2
					}
					change_variable = {
						which = varamharProjectDivinityCounter
						value = 1
					}
				}
			}
		}
	}
	
	varamhar_concentrate_light = {
		icon = mission_pray_light
		required_missions = { varamhar_initiate_project_divinity varamhar_elemental_energy_storage }
		position = 3
		
		provinces_to_highlight = {
			
		}
		
		trigger = {
			OR = {
				any_owned_province = {
					trade_goods = glass
				}
				any_subject_country = {
					any_owned_province = {
						trade_goods = glass
					}
				}
			}
			natural_scientist = 2
			treasury = 200
		}
		
		effect = {
			add_treasury = -200
			609 = {
				add_permanent_province_modifier = {
					name = varamhar_light_research
					duration = 7300
				}
			}
		}
	}
	
	varamhar_distil_divine_magic = {
		icon = mission_riches_of_golconda
		required_missions = { varamhar_concentrate_light varamhar_ascend_the_ranks }
		position = 4
		
		provinces_to_highlight = {
			
		}
		
		trigger = {
			OR = {
				any_owned_province = {
					trade_goods = chinaware
				}
				any_subject_country = {
					any_owned_province = {
						trade_goods = chinaware
					}
				}
				has_country_modifier = varamhar_porcelain_stockpile
			}
			adm_power = 50
			dip_power = 50
			mil_power = 50
		}
		
		effect = {
			add_adm_power = -50
			add_dip_power = -50
			add_mil_power = -50
			country_event = {
				id = varamhar_flavour.17
			}
			
			custom_tooltip = varamhar_estate_loyalty_tt
			hidden_effect = {
				if = {
					limit = {
						estate_loyalty = {
							estate = estate_church
							loyalty = 50
						}
					}
					change_variable = {
						which = varamharProjectDivinityCounter
						value = 1
					}
				}
			}
		}
	}
	
	varamhar_bottled_sunlight = {
		icon = mission_wine_monopolies
		required_missions = { varamhar_distil_divine_magic }
		position = 5
		
		provinces_to_highlight = {
			
		}
		
		trigger = {
			owns_core_province = 614
			614 = {
				has_building = farm_estate
				trade_goods = wine
			}
			mil_power = 100
		}
		
		effect = {
			add_mil_power = -100
			add_country_modifier = {
				name = varamhar_bottled_sunlight
				duration = -1
			}
		}
	}
	
}



varamhar_5 = {
	slot = 5
	generic = no
	ai = yes
	potential = {
		OR = {
			tag = F42
			AND = {
				tag = F38
				was_tag = F42
			}
		}
	}
	has_country_shield = yes
	
	varamhar_appease_the_priests = {
		icon = mission_fatimid_caliphate
		required_missions = { }
		position = 1
		
		provinces_to_highlight = {
			
		}
		
		trigger = {
			estate_loyalty = {
				estate = estate_church
				loyalty = 60
			}
			custom_trigger_tooltip = {
				tooltip = varamhar_rekindle_the_flame_happened_tt
				has_country_flag = varamhar_rekindle_the_flame_flag
			}
		}
		
		effect = {
			add_country_modifier = {
				name = varamhar_pleasedhood
				duration = 9125
			}
		}
	}
	
	varamhar_initiation = {
		icon = mission_crowning
		required_missions = { varamhar_appease_the_priests }
		position = 2
		
		provinces_to_highlight = {
			
		}
		
		trigger = {
			theologian = 1
			estate_loyalty = {
				estate = estate_church
				loyalty = 40
			}
		}
		
		effect = {
			add_ruler_modifier = {
				name = varamhar_sun_cult_acolyte
				duration = -1
			}
		}
	}
	
	varamhar_ascend_the_ranks = {
		icon = mission_princess_writing
		required_missions = { varamhar_initiation }
		position = 3
		
		provinces_to_highlight = {
			
		}
		
		trigger = {
			temple = 10
			dip = 5
		}
		
		effect = {
			remove_country_modifier = varamhar_sun_cult_acolyte
			add_ruler_modifier = {
				name = varamhar_magic_of_the_cult
				duration = -1
			}
			
			custom_tooltip = varamhar_estate_loyalty_tt
			hidden_effect = {
				if = {
					limit = {
						estate_loyalty = {
							estate = estate_church
							loyalty = 50
						}
					}
					change_variable = {
						which = varamharProjectDivinityCounter
						value = 1
					}
				}
			}
		}
	}
	
	varamhar_secrets_of_the_cult = {
		icon = mission_treasure_room
		required_missions = { varamhar_ascend_the_ranks }
		position = 4
		
		provinces_to_highlight = {
			
		}
		
		trigger = {
			estate_loyalty = {
				estate = estate_church
				loyalty = 60
			}
			dip = 6
			has_estate_privilege = estate_church_religious_state
		}
		
		effect = {
			remove_country_modifier = varamhar_magic_of_the_cult
			add_ruler_modifier = {
				name = varamhar_secrets_of_the_cult
				duration = -1
			}
		}
	}
	
	varamhar_import_porcelain = {
		icon = mission_trade_in_gold_coast
		required_missions = { }
		position = 5
		
		provinces_to_highlight = {
			
		}
		
		trigger = {
			treasury = 100
			any_known_country = {
				any_owned_province = {
					province_group = porcelain_cities
				}
				has_opinion = {
					who = ROOT
					value = 50
				}
			}
			custom_trigger_tooltip = {
				tooltip = varamhar_rekindle_the_flame_happened_tt
				has_country_flag = varamhar_rekindle_the_flame_flag
			}
		}
		
		effect = {
			add_treasury = -100
			random_known_country = {
				limit = {
					any_owned_province = {
						province_group = porcelain_cities
					}
					has_opinion = {
						who = ROOT
						value = 50
					}
				}
				country_event = { id = varamhar_flavour.18 }
			}
		}
	}
	
}
