
country_decisions = {

	# black_demense_nation = { #Z99
		# major = yes
		# potential = {
			# always = no	#this is just a debuggy thing so prevent people from getting it
			# has_country_flag = lich_ruler
			# government = theocracy
			# capital_scope = { continent = europe }
			# NOT = { has_country_flag = formed_black_demense_flag }
			
			# normal_or_historical_nations = yes
			# was_never_end_game_tag_trigger = yes
		# }
		# allow = {
			# is_at_war = no
			# is_free_or_tributary_trigger = yes
			# is_nomad = no			
			# NOT = { exists = Z99 }
			
			# num_of_cities = 100
			
			# has_country_flag = lich_ruler
			
		# }
		# effect = {
			# change_tag = Z99
			# hidden_effect = { restore_country_name = yes }
			# swap_non_generic_missions = yes
			# remove_non_electors_emperors_from_empire_effect = yes
			# if = {
				# limit = {
					# NOT = { government_rank = 3 }
				# }
				# set_government_rank = 3
			# }
			
			# if = {
				# limit = {
					# NOT = { government = theocracy }
				# }
				# change_government = theocracy
				# add_government_reform = magocracy_reform	#make it unique later
			# }
			
			# add_country_modifier = {
				# name = "centralization_modifier"
				# duration = 7300
			# }
			# add_prestige = 50
			# if = {
				# limit = {
					# has_custom_ideas = no
				# }
				# country_event = { id = ideagroups.1 } #Swap Ideas
			# }
			# set_country_flag = formed_black_demense_flag
		# }
		# ai_will_do = {
			# factor = 1
		# }
	# }
	
	acolyte_influence = {
		major = yes
		potential = {
			ai = no
			tag = Z99
			acolyte_dominion = 1
		}
		allow = {
			always = yes
		}
		effect = {
			custom_tooltip = acolyte_influence_tooltip
			if = {
				limit = { Z75 = { exists = yes is_subject_of_type = acolyte_dominion } }
				custom_tooltip = Z75_acolyte_influence_tooltip
			}
			if = {
				limit = { Z76 = { exists = yes is_subject_of_type = acolyte_dominion } }
				custom_tooltip = Z76_acolyte_influence_tooltip
			}
			if = {
				limit = { Z77 = { exists = yes is_subject_of_type = acolyte_dominion } }
				custom_tooltip = Z77_acolyte_influence_tooltip
			}
			if = {
				limit = { Z78 = { exists = yes is_subject_of_type = acolyte_dominion } }
				custom_tooltip = Z78_acolyte_influence_tooltip
			}
			if = {
				limit = { Z79 = { exists = yes is_subject_of_type = acolyte_dominion } }
				custom_tooltip = Z79_acolyte_influence_tooltip
			}
			if = {
				limit = { Z80 = { exists = yes is_subject_of_type = acolyte_dominion } }
				custom_tooltip = Z80_acolyte_influence_tooltip
			}
			if = {
				limit = { Z81 = { exists = yes is_subject_of_type = acolyte_dominion } }
				custom_tooltip = Z81_acolyte_influence_tooltip
			}
			if = {
				limit = { 
					black_demesne_can_have_another_acolyte = yes
					black_demesne_has_available_acolyte = yes
				}
				hidden_effect = { set_country_flag = acolyte_decision }
				country_event = { id = black_demesne.5 }
			}
			custom_tooltip = acolyte_influence_refresh_tooltip
			
			hidden_effect = { country_event = { id = black_demesne.100 } }
		}
		ai_will_do = {
			factor = 1
		}
	}
	
	send_the_apostle = {
		major = yes
		potential = {
			OR = {
				tag = Z99
				is_subject_of_type = acolyte_dominion
			}
			NOT = { has_country_flag = debug_menu }
		}
		
		provinces_to_highlight = {
			owned_by = ROOT
			is_territory = yes
			AND = {
				NOT = { is_core = ROOT }
				NOT = { has_construction = core }
			}
		}
		
		allow = {
			adm_power = 50
			any_owned_province = { 
				is_territory = yes
				AND = {
					NOT = { is_core = ROOT }
					NOT = { has_construction = core }
				}
			}
		}
		effect = {
			country_event = { id = black_demesne.3 }
		}
		ai_will_do = {
			factor = 1
		}
	}
	
	finding_the_surge = {
		major = yes
		potential = {
			tag = Z99
			has_country_flag = bd_1_2
			NOT = { has_global_flag = jorgurem_alive }
		}
		
		provinces_to_highlight = {
			has_province_flag = frozen_surge
		}
		
		allow = {
			mil_power = 20
			any_province = {
				custom_trigger_tooltip = {
					tooltip = frozen_surge_tooltip
					has_province_flag = frozen_surge
				}
				infantry_in_province = 20
				has_ruler_leader_from = ROOT
			}
		}
		effect = {
			add_mil_power = -20
			country_event = { id = black_demesne.7 }
		}
		ai_will_do = {
			factor = 1
		}
	}
	
	subjugating_the_beast = {
		major = yes
		potential = {
			tag = Z99
			has_country_flag = bd_1_3
			NOT = { has_global_flag = jorgurem_is_dead }
		}
		
		provinces_to_highlight = {
			has_province_modifier = jorgurem_the_frozen
		}
		
		allow = {
			mil_power = 20
			not_in_magic_duel = yes
			NOT = { has_ruler_modifier = wounded_ruler }
			any_province = {
				has_province_modifier = jorgurem_the_frozen
				has_ruler_leader_from = ROOT
			}
		}
		effect = {
			add_mil_power = -20
			hidden_effect = {
				set_ruler_flag = npc_jorgurem
				country_event = { id = magic_duel.100 }
			}
		}
		ai_will_do = {
			factor = 1
		}
	}
	
	jorgurem_the_fallen = {
		major = yes
		potential = {
			tag = Z99
			has_country_flag = jorgurem_arise
		}
		
		provinces_to_highlight = {
		}
		
		allow = {
			is_at_war = yes
			mil_power = 10
			NOT = { has_country_modifier = black_jorgurem_weakened }
		}
		effect = {
			add_mil_power = -10
			country_event = { id = black_demesne.11 }
			hidden_effect = { set_country_flag = debug_menu }
		}
		ai_will_do = {
			factor = 1
		}
	}
	
	the_blackpurgis = {
		major = yes
		potential = {
			tag = Z99
			has_country_flag = the_blackpurgis
			NOT = { has_country_flag = debug_menu }
			NOT = { has_country_flag = blackpurgis_happening }
		}
		
		provinces_to_highlight = {
		}
		
		allow = {
			is_at_war = no
			acolyte_dominion = 2
			custom_trigger_tooltip = {
				tooltip = the_blackpurgis_available_tooltip
				NOT = { has_ruler_modifier = recent_blackpurgis }
			}
		}
		effect = {
			country_event = { id = black_demesne.56 }
			hidden_effect = { set_country_flag = debug_menu }
		}
		ai_will_do = {
			factor = 1
		}
	}
	
	end_the_blackpurgis = {
		major = yes
		potential = {
			tag = Z99
			has_country_flag = the_blackpurgis
			has_country_flag = blackpurgis_happening
		}
		
		provinces_to_highlight = {
		}
		
		allow = {
			is_at_war = no
			custom_trigger_tooltip = {
				tooltip = max_blackpurgis_tooltip
				check_variable = {
					which = currentBlack
					which = maxBlack
				}
			}
			custom_trigger_tooltip = {
				tooltip = max_blackpurgis_subject_tooltip
				all_subject_country = {
					OR = {
						NOT = { is_subject_of_type = acolyte_dominion }
						AND = {
							is_subject_of_type = acolyte_dominion
							check_variable = {
								which = currentBlack
								which = maxBlack
							}
						}
					}
				}
			}
		}
		effect = {
			custom_tooltip = the_black_purgis_screen_tooltip
			custom_tooltip = Z99_blackpurgis_tooltip
			if = {
				limit = { Z75 = { exists = yes is_subject_of_type = acolyte_dominion } }
				custom_tooltip = Z75_blackpurgis_tooltip
			}
			if = {
				limit = { Z76 = { exists = yes is_subject_of_type = acolyte_dominion } }
				custom_tooltip = Z76_blackpurgis_tooltip
			}
			if = {
				limit = { Z77 = { exists = yes is_subject_of_type = acolyte_dominion } }
				custom_tooltip = Z77_blackpurgis_tooltip
			}
			if = {
				limit = { Z78 = { exists = yes is_subject_of_type = acolyte_dominion } }
				custom_tooltip = Z78_blackpurgis_tooltip
			}
			if = {
				limit = { Z79 = { exists = yes is_subject_of_type = acolyte_dominion } }
				custom_tooltip = Z79_blackpurgis_tooltip
			}
			if = {
				limit = { Z80 = { exists = yes is_subject_of_type = acolyte_dominion } }
				custom_tooltip = Z80_blackpurgis_tooltip
			}
			if = {
				limit = { Z81 = { exists = yes is_subject_of_type = acolyte_dominion } }
				custom_tooltip = Z81_blackpurgis_tooltip
			}
			hidden_effect = { country_event = { id = black_demesne.57 } }
		}
		ai_will_do = {
			factor = 1
		}
	}
	
	the_blackpurgis_ai = {
		major = yes
		potential = {
			is_subject_of_type = acolyte_dominion
			overlord = { has_country_flag = blackpurgis_happening }
		}
		
		provinces_to_highlight = {
		}
		
		allow = {
			is_at_war = no
			NOT = { has_ruler_flag = in_magic_duel }
			if = {
				limit = { overlord = { has_country_flag = short_blackpurgis } }
				any_known_country = {
					NOT = { has_ruler_flag = in_magic_duel }
					NOT = { has_country_flag = black_1_fight_@ROOT }
					is_subject_of_type = acolyte_dominion
				}
			}
			else = {
				any_known_country = {
					NOT = { has_ruler_flag = in_magic_duel }
					NOT = { has_country_flag = black_2_fight_@ROOT }
					is_subject_of_type = acolyte_dominion
				}
			}
		}
		effect = {
			if = {
				limit = { overlord = { has_country_flag = short_blackpurgis } }
				random_known_country = {
					limit = {
						NOT = { has_ruler_flag = in_magic_duel }
						NOT = { has_country_flag = black_1_fight_@ROOT }
						is_subject_of_type = acolyte_dominion
					}
					if = {
						limit = { has_country_flag = black_1_fight_@ROOT }
						set_country_flag = black_2_fight_@ROOT
						ROOT = { set_country_flag = black_2_fight_@PREV }
					}
					else = {
						set_country_flag = black_1_fight_@ROOT
						ROOT = { set_country_flag = black_1_fight_@PREV }
					}
					set_country_flag = duel_@ROOT
					set_ruler_flag = in_magic_duel
				}
			}
			else = {
				random_known_country = {
					limit = {
						NOT = { has_ruler_flag = in_magic_duel }
						NOT = { has_country_flag = black_2_fight_@ROOT }
						is_subject_of_type = acolyte_dominion
					}
					if = {
						limit = { has_country_flag = black_1_fight_@ROOT }
						set_country_flag = black_2_fight_@ROOT
						ROOT = { set_country_flag = black_2_fight_@PREV }
					}
					else = {
						set_country_flag = black_1_fight_@ROOT
						ROOT = { set_country_flag = black_1_fight_@PREV }
					}
					set_country_flag = duel_@ROOT
					set_ruler_flag = in_magic_duel
				}
			}
			set_ruler_flag = in_magic_duel
			country_event = { id = magic_duel.0 }
		}
		
		ai_will_do = {
			factor = 1
		}
	}
	
	mapping_the_world_root = {
		major = yes
		potential = {
			tag = Z99
			has_country_flag = bd_5_4
			NOT = { 874 = { has_province_modifier = black_world_root } }
			NOT = { has_country_flag = world_root_mapped }
			NOT = { has_country_flag = debug_menu }
		}
		
		provinces_to_highlight = {
			NOT = { has_province_modifier = black_world_root }
			any_neighbor_province = {
				has_province_modifier = black_world_root
			}
		}
		
		allow = {
			mil_power = 25
			adm_power = 25
			custom_trigger_tooltip = {
				tooltip = not_searching_for_root_tooltip
				NOT = { has_country_flag = searching_for_root }
			}
			is_monarch_leader = yes
			any_province = {
				has_ruler_leader_from = ROOT
				NOT = { has_province_modifier = black_world_root }
				any_neighbor_province = {
					has_province_modifier = black_world_root
				}
			}
		}
		effect = {
			country_event = { id = black_demesne.60 }
		}
		
		ai_will_do = {
			factor = 1
		}
	}
	
	the_well_of_majesty = {
		major = yes
		potential = {
			tag = Z99
			has_country_flag = well_of_majesty
			NOT = { has_ruler_flag = well_of_majesty_ritual }
		}
		
		provinces_to_highlight = {
			province_id = 874
		}
		
		allow = {
			is_at_war = no
			NOT = { has_ruler_modifier = ruler_studying_magic }
			874 = { country_or_subject_holds = ROOT }
			874 = {
				has_great_project = {
					type = well_of_majesty
					tier = 3
				}
			}
			adm_power = 250
			dip_power = 250
			mil_power = 250
		}
		effect = {
			add_adm_power = -250
			add_dip_power = -250
			add_mil_power = -250
			country_event = { id = black_demesne.64 }
		}
		
		ai_will_do = {
			factor = 1
		}
	}
	
	scepter_industry_decision = {
		major = yes
		potential = {
			tag = Z99
			mission_completed = Z99_scepter_industry
			NOT = { has_ruler_modifier = black_scepter_of_scepter }
		}
		
		provinces_to_highlight = {
		}
		
		allow = {
			is_at_war = no
			years_of_income = 1.5
		}
		effect = {
			country_event = { id = black_demesne.38 }
		}
		
		ai_will_do = {
			factor = 1
		}
	}
	
	walk_the_stellar_path = {
		major = yes
		potential = {
			NOT = { tag = Z99 }
			has_country_flag = can_form_bd
		}
		
		provinces_to_highlight = {
		}
		
		allow = {
			always = yes
		}
		effect = {
			change_tag = Z99
			swap_non_generic_missions = yes
			hidden_effect = { restore_country_name = yes }
			change_government = theocracy
			hidden_effect = {
				every_owned_province = {
					limit = { 
						has_owner_culture = yes
						has_human_majority_trigger = yes
					}
					change_culture = black_demesner
				}
			}
			change_primary_culture = black_demesner
			set_ruler_culture = black_demesner
			country_event = { id = ideagroups.1 }
			set_country_flag = formed_black_demense_flag
			set_government_rank = 3
		}
		
		ai_will_do = {
			factor = 1
		}
	}
	
}
