
namespace = lotdekkhang
#country lacks heir, bestow blessing upon candidate
country_event = {
	id = lotdekkhang.1
	title = lotdekkhang.1.t
	desc = lotdekkhang.1.d
	picture = DIPLOMACY_eventPicture
	
	fire_only_once = no
	trigger = {
	has_reform = teplinbasiet_arena_kingdom_reform
	has_heir = no
	NOT = { has_country_flag = Y58_teplinbasiet_duel }
	}
	mean_time_to_happen = {
		days = 1
	}
	
	immediate = { 
		set_country_flag = Y58_teplinbasiet_duel
	}
	
	#relative
	option = {
		name = lotdekkhang.1.a
		ai_chance = { factor = 60 }
		set_country_flag = Y58_blessed_male_relative
		country_event = { id = lotdekkhang.2 days = 1 }
	}
	
	#prominent dauloph
	option = {
		name = lotdekkhang.1.b
		ai_chance = { factor = 30 }
		set_country_flag = Y58_blessed_prominent_dauloph
		country_event = { id = lotdekkhang.2 days = 1 }
		
	}
	
	#swallow hobgoblin
	option = {
		name = lotdekkhang.1.c
		ai_chance = { factor = 20 }
		trigger = {
			OR = {
				medium_tolerance_hobgoblin_race_trigger = yes
				high_tolerance_hobgoblin_race_trigger = yes
			}
		}
		set_country_flag = Y58_blessed_swallow_hobgoblin
		country_event = { id = lotdekkhang.2 days = 1 }
	}
	
	#sun elf
	option = {
		name = lotdekkhang.1.e
		ai_chance = { factor = 20 }
		trigger = {
			AND = {
				OR = {
					medium_tolerance_elven_race_trigger = yes
					high_tolerance_elven_race_trigger = yes
				}
				OR = {
					owns_or_subject_of = 4789
					capital_scope = {
						has_elven_minority_trigger = yes
					}
					capital_scope = {
						culture_group = elven
					}
				}
			}
		}
		set_country_flag = Y58_blessed_sun_elf
		country_event = { id = lotdekkhang.2 days = 1 }
	}
	
	#nephrite dwarf
	option = {
		name = lotdekkhang.1.f
		ai_chance = { factor = 15 }
		trigger = {
				AND = {
				OR = {
					medium_tolerance_dwarven_race_trigger = yes
					high_tolerance_dwarven_race_trigger = yes
				}
				OR = {
					owns_or_subject_of = 5424
					capital_scope = {
						has_dwarven_minority_trigger = yes
					}
					capital_scope = {
						culture_group = dwarven
					}
				}
				}
		}
		set_country_flag = Y58_blessed_nephrite_dwarf
		country_event = { id = lotdekkhang.2 days = 1 }
	}
	
	#east harimari
	option = {
		name = lotdekkhang.1.g
		ai_chance = { factor = 20 }
		trigger = {
				OR = {
					medium_tolerance_harimari_race_trigger = yes
					high_tolerance_harimari_race_trigger = yes
				}
			}
		set_country_flag = Y58_blessed_east_harimari
		country_event = { id = lotdekkhang.2 days = 1 }
	}
	
	#feng harpy
	option = {
		name = lotdekkhang.1.h
		ai_chance = { factor = 10 }
		trigger = {
				AND = {
				OR = {
					medium_tolerance_harpy_race_trigger = yes
					high_tolerance_harpy_race_trigger = yes
				}
				OR = {
						owns_or_subject_of = 4614
						owns_or_subject_of = 4610
						owns_or_subject_of = 4786
					capital_scope = {
						has_harpy_minority_trigger = yes
					}
					capital_scope = {
						culture_group = harpy
					}
				}
				}
		}
		set_country_flag = Y58_blessed_feng_harpy
		country_event = { id = lotdekkhang.2 days = 1 }
	}
	
	#goldbold
	option = {
		name = lotdekkhang.1.i
		ai_chance = { factor = 10 }
		trigger = {
			AND = {
				OR = {
					medium_tolerance_kobold_race_trigger = yes
					high_tolerance_kobold_race_trigger = yes
				}
				OR = {
						owns_or_subject_of = 4976
						owns_or_subject_of = 4856
					capital_scope = {
						has_kobold_minority_trigger = yes
					}
					capital_scope = {
						culture_group = kobold
					}
				}
			}
		}
		set_country_flag = Y58_blessed_goldbold
		country_event = { id = lotdekkhang.2 days = 1 }
	}
	
	#oni
	option = {
		name = lotdekkhang.1.j
		ai_chance = { factor = 10 }
		trigger = {
			AND = {
				OR = {
					medium_tolerance_ogre_race_trigger = yes
					high_tolerance_ogre_race_trigger = yes
				}
				OR = {
					owns_or_subject_of = 5430
					capital_scope = {
						has_ogre_minority_trigger = yes
					}
					capital_scope = {
						culture_group = ogre
					}
				}
			}
		}
		set_country_flag = Y58_blessed_oni
		country_event = { id = lotdekkhang.2 days = 1 }
		
	}
	
	#brown orc
	option = {
		name = lotdekkhang.1.k
		ai_chance = { factor = 10 }
		trigger = {
			AND = {
				OR = {
					medium_tolerance_orcish_race_trigger = yes
					high_tolerance_orcish_race_trigger = yes
				}
				OR = {
					capital_scope = {
						has_orcish_minority_trigger = yes
					}
					capital_scope = {
						culture_group = orcish
					}
					has_country_flag = Y58_bloodfists
				}
			}
		}
		set_country_flag = Y58_blessed_brown_orc
		country_event = { id = lotdekkhang.2 days = 1 }
		
	}
	
	#cave goblin
	option = {
		name = lotdekkhang.1.l
		ai_chance = { factor = 5 }
		trigger = {
			AND = {
				OR = {
					medium_tolerance_goblin_race_trigger = yes
					high_tolerance_goblin_race_trigger = yes
				}
				OR = {
					owns_or_subject_of = 4323
					owns_or_subject_of = 4350
					capital_scope = {
						has_goblin_minority_trigger = yes
					}
					capital_scope = {
						culture_group = goblin
					}
				}
			}
		}
		set_country_flag = Y58_blessed_cave_goblin
		country_event = { id = lotdekkhang.2 days = 1 }
		
	}
	
	#half orc
	option = {
		name = lotdekkhang.1.m
		ai_chance = { factor = 5 }
		trigger = {
			AND = {
				OR = {
					medium_tolerance_half_orcish_race_trigger = yes
					high_tolerance_half_orcish_race_trigger = yes
				}
				OR = {
					capital_scope = {
						has_half_orcish_minority_trigger = yes
					}
				}
			}
		}
		set_country_flag = Y58_blessed_half_orc
		country_event = { id = lotdekkhang.2 days = 1 }
		
	}
	
	#half elf
	option = {
		name = lotdekkhang.1.n
		ai_chance = { factor = 5 }
		trigger = {
			AND = {
				OR = {
					medium_tolerance_half_elven_race_trigger = yes
					high_tolerance_half_elven_race_trigger = yes
				}
				OR = {
					capital_scope = {
						has_half_elven_minority_trigger = yes
					}
				}
			}
		}
		set_country_flag = Y58_blessed_half_elf
		country_event = { id = lotdekkhang.2 days = 1 }
		
	}
	
	#local root root fighter
	option = {
		name = lotdekkhang.1.o
		ai_chance = { factor = 15 }
		set_country_flag = Y58_blessed_local_fighter
		country_event = { id = lotdekkhang.2 days = 1 }
		
	}
	
	#allied noble
	option = {
		name = lotdekkhang.1.p
		ai_chance = { factor = 10 }
		trigger = {
			any_ally = { OR = { government = monarchy government = tribal} }
		}
		set_country_flag = Y58_blessed_allied_noble
		country_event = { id = lotdekkhang.2 days = 1 }
		
	}
}
#heir defining
country_event = {
	id = lotdekkhang.2
	title = lotdekkhang.2.t
	desc = lotdekkhang.2.d
	picture = DIPLOMACY_eventPicture
	
	is_triggered_only = yes
	
	immediate = {
	hidden_effect = {
		clr_country_flag = Y58_allied_noble_won
		clr_country_flag = Y58_local_fighter_won
		clr_country_flag = Y58_prominent_dauloph_won
		
		R62 = { save_event_target_as = hobgoblin_origin }
			set_saved_name = {
				key = hobgoblin_name
				type = leader
				scope = event_target:hobgoblin_origin
			}

		R65 = { save_event_target_as = goblin_origin }
			set_saved_name = {
				key = goblin_name
				type = leader
				scope = event_target:goblin_origin
			}

		Y01 = { save_event_target_as = oni_origin }
			set_saved_name = {
				key = oni_name
				type = leader
				scope = event_target:oni_origin
			}
			
		Y85 = { save_event_target_as = goldbold_origin }
			set_saved_name = {
				key = goldbold_name
				type = leader
				scope = event_target:goldbold_origin
			}
			
		Y39 = { save_event_target_as = feng_origin }
			set_saved_name = {
				key = feng_name
				type = leader
				scope = event_target:feng_origin
			}
			
		Y12 = { save_event_target_as = harimari_origin }
			set_saved_name = {
				key = harimari_name
				type = leader
				scope = event_target:harimari_origin
			}
		
		R64 = { save_event_target_as = brown_orc_origin }
			set_saved_name = {
				key = brown_orc_name
				type = leader
				scope = event_target:brown_orc_origin
			}
			
		F25 = { save_event_target_as = sun_elf_origin }
			set_saved_name = {
				key = sun_elf_name
				type = leader
				scope = event_target:sun_elf_origin
			}
		
		Y63 = { save_event_target_as = nephrite_dwarf_origin }
			set_saved_name = {
				key = nephrite_dwarf_name
				type = leader
				scope = event_target:nephrite_dwarf_origin
			}
			
		Y58 = { save_event_target_as = relative_origin }
			set_saved_name = {
				key = relative_name
				type = leader
				scope = event_target:relative_origin
			}
		
		Y58 = { save_event_target_as = dauloph_origin }
			set_saved_name = {
				key = dauloph_name
				type = leader
				scope = event_target:dauloph_origin
			}
			
		Y58 = { save_event_target_as = fighter_origin }
			set_saved_name = {
				key = fighter_name
				type = leader
				scope = event_target:fighter_origin
			}
		random_ally = {
			limit = {
				OR = { government = monarchy government = tribal }
			} 
			save_event_target_as = ally_origin 
		}
			set_saved_name = {
				key = ally_name
				type = advisor
				scope = event_target:ally_origin
			}
	}
	}
	
	after = {
		hidden_effect = {
			clear_saved_name = hobgoblin_name
			clear_saved_name = goblin_name
			clear_saved_name = oni_name
			clear_saved_name = goldbold_name
			clear_saved_name = feng_name
			clear_saved_name = harimari_name
			clear_saved_name = brown_orc_name
			clear_saved_name = sun_elf_name
			clear_saved_name = nephrite_dwarf_name
			clear_saved_name = relative_name
			clear_saved_name = dauloph_name
			clear_saved_name = fighter_name
			clear_saved_name = ally_name
        }
	}

	option = {
		name = lotdekkhang.2.a
		ai_chance = { factor = 100 }
		random_list = {
		#relative
		60 = {
			modifier = {
				factor = 5
				has_country_flag = Y58_blessed_male_relative
			}
			if = {
				limit = { ruler_culture = feng_harpy }
				define_heir = {
					name = feng_name
					dynasty = ROOT
					culture = new_variable:ruler_culture
					religion = new_variable:ruler_religion
					female = yes
					age = 20
					mil = 2
					max_random_adm = 5
					max_random_dip = 5
					claim = 80
					no_consort_with_heir = no
				}
				small_increase_of_harpy_tolerance_effect = yes
			}
			else = {
				define_heir = {
					name = relative_name
					dynasty = ROOT
					culture = new_variable:ruler_culture
					religion = new_variable:ruler_religion
					age = 19
					mil = 2
					max_random_adm = 5
					max_random_dip = 5
					claim = 80
					no_consort_with_heir = no
				}
				set_country_flag = Y58_relative_won
			}
			set_heir_flag = set_heir_race
#			convert_heir_to_general = yes
		}
		
		#prominent dauloph
		30 = {
			modifier = {
				factor = 5
				has_country_flag = Y58_blessed_prominent_dauloph
			}
			define_heir = {
				name = dauloph_name
				age = 30
				mil = 2
				max_random_adm = 5
				max_random_dip = 5
				claim = 65
				male = yes
				no_consort_with_heir = yes
			}
			set_country_flag = Y58_prominent_dauloph_won
			set_heir_flag = set_heir_race
#			convert_heir_to_general = yes
		}
			
		#swallow gobgoblin
		20 = {
			modifier = {
				factor = 5
				has_country_flag = Y58_blessed_swallow_hobgoblin
			}
			modifier = {
				factor = 0
				NOT = {
					OR = {
						medium_tolerance_hobgoblin_race_trigger = yes
						high_tolerance_hobgoblin_race_trigger = yes
					}
				}
			}
			define_heir = {
				name = hobgoblin_name
				dynasty = "Swallowborn"
				age = 24
				mil = 2
				max_random_adm = 5
				max_random_dip = 5
				culture = swallow_command
				religion = godlost
#				culture = new_variable:prev:ruler_culture #wrong
#				religion = new_variable:prev:ruler_religion #wrong
				claim = 40
				male = yes
				no_consort_with_heir = yes
			}
			small_increase_of_hobgoblin_tolerance_effect = yes
			set_heir_flag = set_heir_race
#			convert_heir_to_general = yes
			
			
		}

		#sun elf
		20 = {
			modifier = {
				factor = 5
				has_country_flag = Y58_blessed_sun_elf
			}
			modifier = {
				factor = 0
				NOT = {
					AND = {
					OR = {
						medium_tolerance_elven_race_trigger = yes
						high_tolerance_elven_race_trigger = yes
					}
					OR = {
						owns_or_subject_of = 4789
						capital_scope = {
							has_elven_minority_trigger = yes
						}
						capital_scope = {
							culture_group = elven
						}
					}
					}
				}
			}
			define_heir = {
				name = sun_elf_name
				dynasty = "of Azkare"
				age = 99
				mil = 2
				max_random_adm = 5
				max_random_dip = 5
				culture = sun_elf
				religion = righteous_path
				claim = 40
				male = yes
				no_consort_with_heir = yes
			}
			small_increase_of_elven_tolerance_effect = yes
			add_heir_personality = immortal_personality
			set_heir_flag = set_immortality
			set_heir_flag = set_heir_race
#			convert_heir_to_general = yes
		}

		#nephrite dwarf
		15 = {
			modifier = {
				factor = 5
				has_country_flag = Y58_blessed_nephrite_dwarf
			}
			modifier = {
				factor = 0
				NOT = {
					AND = {
					OR = {
						medium_tolerance_dwarven_race_trigger = yes
						high_tolerance_dwarven_race_trigger = yes
					}
					OR = {
						owns_or_subject_of = 5424
						capital_scope = {
							has_dwarven_minority_trigger = yes
						}
						capital_scope = {
							culture_group = dwarven
						}
					}
					}
				}
			}
			define_heir = {
				name = nephrite_dwarf_name
				dynasty = "Nepher"
				age = 88
				mil = 2
				max_random_adm = 5
				max_random_dip = 5
				culture = nephrite_dwarf
				religion = ancestor_worship
				claim = 40
				male = yes
				no_consort_with_heir = yes
			}
			small_increase_of_dwarven_tolerance_effect = yes
			add_heir_personality = immortal_personality
			set_heir_flag = set_immortality
			set_heir_flag = set_heir_race
#			convert_heir_to_general = yes
		}

		#east harimari
		20 = {
			modifier = {
				factor = 5
				has_country_flag = Y58_blessed_east_harimari
			}
			modifier = {
				factor = 0
				NOT = {
					OR = {
						medium_tolerance_harimari_race_trigger = yes
						high_tolerance_harimari_race_trigger = yes
					}
				}
			}
			define_heir = {
				name = harimari_name
				dynasty = "of the Dueling Tiger"
				age = 25
				mil = 2
				max_random_adm = 5
				max_random_dip = 5
				culture = east_harimari
				claim = 40
				male = yes
				no_consort_with_heir = yes
			}
			small_increase_of_harimari_tolerance_effect = yes
			set_heir_flag = set_heir_race
#			convert_heir_to_general = yes
		}

		#feng harpy
		10 = {
			modifier = {
				factor = 5
				has_country_flag = Y58_blessed_feng_harpy
			}
			modifier = {
				factor = 0
				NOT = {
					AND = {
					OR = {
						medium_tolerance_harpy_race_trigger = yes
						high_tolerance_harpy_race_trigger = yes
					}
					OR = {
						owns_or_subject_of = 4614
						owns_or_subject_of = 4610
						owns_or_subject_of = 4786
						capital_scope = {
							has_harpy_minority_trigger = yes
						}
						capital_scope = {
							culture_group = harpy
						}
					}
					}
				}
			}
			define_heir = {
				name = feng_name
				dynasty = "Roostborn"
				age = 18
				mil = 2
				max_random_adm = 5
				max_random_dip = 5
				culture = feng_harpy
				religion = righteous_path
				claim = 40
				female = yes
				no_consort_with_heir = yes
			}
			small_increase_of_harpy_tolerance_effect = yes
			set_heir_flag = set_heir_race
#			convert_heir_to_general = yes
		}

		#goldbold
		10 = {
			modifier = {
				factor = 5
				has_country_flag = Y58_blessed_goldbold
			}
			modifier = {
				factor = 0
				NOT = {
					AND = {
					OR = {
						medium_tolerance_kobold_race_trigger = yes
						high_tolerance_kobold_race_trigger = yes
					}
					OR = {
						owns_or_subject_of = 4976
						owns_or_subject_of = 4856
						capital_scope = {
							has_kobold_minority_trigger = yes
						}
						capital_scope = {
							culture_group = kobold
						}
					}
					}
				}
			}
			define_heir = {
				name = goldbold_name
				dynasty "the Lucky"
				age = 23
				mil = 2
				max_random_adm = 5
				max_random_dip = 5
				culture = goldscale_kobold
				religion = righteous_path
				claim = 40
				male = yes
				no_consort_with_heir = yes
			}
			small_increase_of_kobold_tolerance_effect = yes
			set_heir_flag = set_heir_race
#			convert_heir_to_general = yes
		}
		
		#oni
		10 = {
			modifier = {
				factor = 5
				has_country_flag = Y58_blessed_oni
			}
			modifier = {
				factor = 0
				NOT = {
					AND = {
					OR = {
						medium_tolerance_ogre_race_trigger = yes
						high_tolerance_ogre_race_trigger = yes
					}
					OR = {
						owns_or_subject_of = 5430
						capital_scope = {
							has_ogre_minority_trigger = yes
						}
						capital_scope = {
							culture_group = ogre
						}
					}
					}
				}
			}
			define_heir = {
				name = oni_name
				dynasty = "Hornbearer"
				age = 24
				mil = 2
				max_random_adm = 5
				max_random_dip = 5
				culture = horned_ogre
				religion = lefthand_path
				claim = 40
				male = yes
				no_consort_with_heir = yes
			}
			small_increase_of_ogre_tolerance_effect = yes
			set_heir_flag = set_heir_race
#			convert_heir_to_general = yes
		}
		
		#brown orc
		10 = {
			modifier = {
				factor = 5
				has_country_flag = Y58_blessed_brown_orc
			}
			modifier = {
				factor = 0
				NOT = {
					AND = {
					OR = {
						medium_tolerance_orcish_race_trigger = yes
						high_tolerance_orcish_race_trigger = yes
					}
					OR = {
						capital_scope = {
							has_orcish_minority_trigger = yes
						}
						capital_scope = {
							culture_group = orcish
						}
						has_country_flag = Y58_bloodfists
					}
					}
				}
			}
			define_heir = {
				name = brown_orc_name
				dynasty = "Thundersong"
				age = 25
				mil = 2
				max_random_adm = 5
				max_random_dip = 5
				culture = brown_orc
				religion = old_dookan
				claim = 40
				male = yes
				no_consort_with_heir = yes
			}
			small_increase_of_orcish_tolerance_effect = yes
			set_heir_flag = set_heir_race
#			convert_heir_to_general = yes
		}

		#cave goblin
		5 = {
			modifier = {
				factor = 5
				has_country_flag = Y58_blessed_cave_goblin
			}
			modifier = {
				factor = 0
				NOT = {
					AND = {
					OR = {
						medium_tolerance_goblin_race_trigger = yes
						high_tolerance_goblin_race_trigger = yes
					}
					OR = {
						owns_or_subject_of = 4323
						owns_or_subject_of = 4350
						capital_scope = {
							has_goblin_minority_trigger = yes
						}
						capital_scope = {
							culture_group = goblin
						}
					}
					}
				}
			}
			define_heir = {
				name = goblin_name
				dynasty = "the Short"
				age = 33
				mil = 2
				max_random_adm = 5
				max_random_dip = 5
				culture = cave_goblin
				religion = goblinic_shamanism
				claim = 40
				male = yes
				no_consort_with_heir = yes
			}
			small_increase_of_goblin_tolerance_effect = yes
			set_heir_flag = set_heir_race
#			convert_heir_to_general = yes
		}

		#half orc
		5 = {
			modifier = {
				factor = 5
				has_country_flag = Y58_blessed_half_orc
			}
			modifier = {
				factor = 0
				NOT = {
					AND = {
					OR = {
						medium_tolerance_half_orcish_race_trigger = yes
						high_tolerance_half_orcish_race_trigger = yes
					}
					OR = {
						capital_scope = {
							has_half_orcish_minority_trigger = yes
						}
					}
					}
				}
			}
			define_heir = {
				name = brown_orc_name
				dynasty = "Bloodfist"
				age = 28
				mil = 2
				max_random_adm = 5
				max_random_dip = 5
				culture = half_orc
				religion = old_dookan
				claim = 35
				male = yes
				no_consort_with_heir = yes
			}
			small_increase_of_half_orcish_tolerance_effect = yes
			set_heir_flag = set_heir_race
#			convert_heir_to_general = yes
		}

		#half elf
		10 = {
			modifier = {
				factor = 5
				has_country_flag = Y58_blessed_half_elf
			}
			modifier = {
				factor = 0
				NOT = {
					AND ={
					OR = {
						medium_tolerance_half_elven_race_trigger = yes
						high_tolerance_half_elven_race_trigger = yes
					}
					OR = {
						capital_scope = {
							has_half_elven_minority_trigger = yes
						}
					}
					}
				}
			}
			define_heir = {
				age = 26
				dynasty = "Sunborn"
				mil = 2
				max_random_adm = 5
				max_random_dip = 5
				culture = half_elf
				religion = righteous_path
				claim = 35
				male = yes
				no_consort_with_heir = yes
			}
			small_increase_of_half_elven_tolerance_effect = yes
			set_heir_flag = set_heir_race
#			convert_heir_to_general = yes
		}

		#local fighter
		15 = {
			modifier = {
				factor = 5
				has_country_flag = Y58_blessed_local_fighter
			}
			event_target:fighter_origin = {
			ROOT = {
			define_heir = {
				name = fighter_name
				age = 27
				mil = 2
				max_random_adm = 5
				max_random_dip = 5
				claim = 40
				male = yes
				no_consort_with_heir = yes
			}
#			convert_heir_to_general = yes
			set_country_flag = Y58_local_fighter_won
			}
			}
		}

		#allied noble
		15 = {
			modifier = {
				factor = 5
				has_country_flag = Y58_blessed_allied_noble
			}
			modifier = {
				factor = 0
				NOT = { any_ally = { OR = { government = monarchy government = tribal}}
				}
			}
			event_target:ally_origin = {
			IF = {
			LIMIT = { culture_group = dwarven }
				ROOT = {
					define_heir = {
						name = ally_name
						age = 84
						culture = new_variable:prev:ruler_culture
						religion = new_variable:prev:ruler_religion
						dynasty = prev
						mil = 2
						max_random_adm = 5
						max_random_dip = 5
						claim = 40
						male = yes
						no_consort_with_heir = yes
					}
					small_increase_of_dwarven_tolerance_effect = yes
					add_heir_personality = immortal_personality
					set_heir_flag = set_immortality
					set_heir_flag = set_heir_race
#					convert_heir_to_general = yes
				}
			}
			ELSE_IF = {
			LIMIT = { culture_group = elven }
				ROOT = {
					define_heir = {
						name = ally_name
						age = 93
						culture = new_variable:prev:ruler_culture
						religion = new_variable:prev:ruler_religion
						dynasty = prev
						mil = 2
						max_random_adm = 5
						max_random_dip = 5
						claim = 40
						male = yes
						no_consort_with_heir = yes
					}
					small_increase_of_elven_tolerance_effect = yes
					add_heir_personality = immortal_personality
					set_heir_flag = set_immortality
					set_heir_flag = set_heir_race
#					convert_heir_to_general = yes
				}
			}
			ELSE_IF = {
			LIMIT = { culture_group = harpy }
				ROOT = {
					define_heir = {
						name = ally_name
						age = 19
						culture = new_variable:prev:ruler_culture
						religion = new_variable:prev:ruler_religion
						dynasty = prev
						mil = 2
						max_random_adm = 5
						max_random_dip = 5
						claim = 40
						female = yes
						no_consort_with_heir = yes
					}
					small_increase_of_harpy_tolerance_effect = yes
					set_heir_flag = set_heir_race
#					convert_heir_to_general = yes
				}
			}
			ELSE = {
				ROOT = {
					define_heir = {
						name = ally_name
						age = 29
						culture = new_variable:prev:ruler_culture
						religion = new_variable:prev:ruler_religion
						dynasty = prev
						mil = 2
						max_random_adm = 5
						max_random_dip = 5
						claim = 40
						male = yes
						no_consort_with_heir = yes
					}
					set_heir_flag = set_heir_race
#					convert_heir_to_general = yes
					set_country_flag = Y58_allied_noble_won
				}
			}
			}
		}
	}
			clr_country_flag = Y58_blessed_male_relative
			clr_country_flag = Y58_blessed_prominent_dauloph
			clr_country_flag = Y58_blessed_swallow_hobgoblin
			clr_country_flag = Y58_blessed_sun_elf
			clr_country_flag = Y58_blessed_nephrite_dwarf
			clr_country_flag = Y58_blessed_east_harimari
			clr_country_flag = Y58_blessed_feng_harpy
			clr_country_flag = Y58_blessed_goldbold
			clr_country_flag = Y58_blessed_oni
			clr_country_flag = Y58_blessed_brown_orc
			clr_country_flag = Y58_blessed_cave_goblin
			clr_country_flag = Y58_blessed_half_orc
			clr_country_flag = Y58_blessed_half_elf
			clr_country_flag = Y58_blessed_local_fighter
			clr_country_flag = Y58_blessed_allied_noble
			clr_country_flag = Y58_teplinbasiet_duel
	
	}
}

country_event = {
	id = lotdekkhang.3
	title = lotdekkhang.3.t
	desc = lotdekkhang.3.d
	picture = DIPLOMACY_eventPicture
	
	is_triggered_only = yes
	
	immediate = {
	}
	
	option = {
	name = lotdekkhang.3.a
		ai_chance = { 
			factor = 100 
		}
		trigger = {
			ruler_culture = swallow_command
		}
		add_ruler_modifier = {
			name = Y58_lot_dekkhang_swallow_ruler
			duration = -1  
		}
	}
	
	option = {
	name = lotdekkhang.3.b
		ai_chance = { 
			factor = 100 
		}
		trigger = {
			ruler_culture = sun_elf
		}
		add_ruler_modifier = {
			name = Y58_lot_dekkhang_sun_ruler
			duration = -1  
		}
	}
	
	option = {
	name = lotdekkhang.3.c
		ai_chance = { 
			factor = 100 
		}
		trigger = {
			ruler_culture = nephrite_dwarf
		}
		add_ruler_modifier = {
			name = Y58_lot_dekkhang_nephrite_ruler
			duration = -1  
		}
	}
	
	option = {
	name = lotdekkhang.3.e
		ai_chance = { 
			factor = 100 
		}
		trigger = {
			ruler_culture = east_harimari
		}
		add_ruler_modifier = {
			name = Y58_lot_dekkhang_harimari_ruler
			duration = -1  
		}
	}
	
	option = {
	name = lotdekkhang.3.f
		ai_chance = { 
			factor = 100 
		}
		trigger = {
			ruler_culture = feng_harpy
		}
		add_ruler_modifier = {
			name = Y58_lot_dekkhang_feng_ruler
			duration = -1  
		}
	}
	
	option = {
	name = lotdekkhang.3.g
		ai_chance = { 
			factor = 100 
		}
		trigger = {
			ruler_culture = goldscale_kobold
		}
		add_ruler_modifier = {
			name = Y58_lot_dekkhang_goldbold_ruler
			duration = -1  
		}
	}
	
	option = {
	name = lotdekkhang.3.h
		ai_chance = { 
			factor = 100 
		}
		trigger = {
			ruler_culture = horned_ogre
		}
		add_ruler_modifier = {
			name = Y58_lot_dekkhang_oni_ruler
			duration = -1  
		}
	}
	
	option = {
	name = lotdekkhang.3.i
		ai_chance = { 
			factor = 100 
		}
		trigger = {
			ruler_culture = brown_orc
		}
		add_ruler_modifier = {
			name = Y58_lot_dekkhang_orc_ruler
			duration = -1  
		}
	}
	
	option = {
	name = lotdekkhang.3.j
		ai_chance = { 
			factor = 100 
		}
		trigger = {
			ruler_culture = cave_goblin
		}
		add_ruler_modifier = {
			name = Y58_lot_dekkhang_goblin_ruler
			duration = -1  
		}
	}
	
	option = {
	name = lotdekkhang.3.k
		ai_chance = { 
			factor = 100 
		}
		trigger = {
			ruler_culture = half_orc
		}
		add_ruler_modifier = {
			name = Y58_lot_dekkhang_horc_ruler
			duration = -1  
		}
	}
	
	option = {
	name = lotdekkhang.3.l
		ai_chance = { 
			factor = 100 
		}
		trigger = {
			ruler_culture = half_elf
		}
		add_ruler_modifier = {
			name = Y58_lot_dekkhang_helf_ruler
			duration = -1  
		}
	}
	
	option = {
	name = lotdekkhang.3.m
		ai_chance = { 
			factor = 100 
		}
		trigger = {
			has_country_flag = Y58_relative_won
			NOT = {
				ruler_culture = half_elf
				ruler_culture = half_orc
				ruler_culture = cave_goblin
				ruler_culture = brown_orc
				ruler_culture = horned_ogre
				ruler_culture = goldscale_kobold
				ruler_culture = feng_harpy
				ruler_culture = east_harimari
				ruler_culture = nephrite_dwarf
				ruler_culture = sun_elf
				ruler_culture = swallow_command
			}
		}
		clr_country_flag = Y58_relative_won
		add_ruler_modifier = {
			name = Y58_lot_dekkhang_relative_ruler
			duration = -1  
		}
	}
	
	option = {
	name = lotdekkhang.3.n
		ai_chance = { 
			factor = 100 
		}
		trigger = {
			has_country_flag = Y58_prominent_dauloph_won
		}
		clr_country_flag = Y58_prominent_dauloph_won
		add_ruler_modifier = {
			name = Y58_lot_dekkhang_dauloph_ruler
			duration = -1  
		}
	}
	
	option = {
	name = lotdekkhang.3.o
		ai_chance = { 
			factor = 100 
		}
		trigger = {
			OR = {
				has_country_flag = Y58_local_fighter_won
				NOT = {
					ruler_culture = half_elf
					ruler_culture = half_orc
					ruler_culture = cave_goblin
					ruler_culture = brown_orc
					ruler_culture = horned_ogre
					ruler_culture = goldscale_kobold
					ruler_culture = feng_harpy
					ruler_culture = east_harimari
					ruler_culture = nephrite_dwarf
					ruler_culture = sun_elf
					ruler_culture = swallow_command
					has_country_flag = Y58_local_fighter_won
					has_country_flag = Y58_allied_noble_won
					has_country_flag = Y58_prominent_dauloph_won
					has_country_flag = Y58_relative_won
				}
			}
		}
		clr_country_flag = Y58_local_fighter_won
		clr_country_flag = Y58_allied_noble_won
		clr_country_flag = Y58_prominent_dauloph_won
		clr_country_flag = Y58_relative_won
		add_ruler_modifier = {
			name = Y58_lot_dekkhang_fighter_ruler
			duration = -1  
		}
	}
	
	option = {
	name = lotdekkhang.3.p
		ai_chance = {
			factor = 100 
		}
			trigger = {
				has_country_flag = Y58_allied_noble_won
			}
		
		clr_country_flag = Y58_allied_noble_won
		add_ruler_modifier = {
			name = Y58_lot_dekkhang_allied_ruler
			duration = -1  
		}
	}
}

country_event = {
	id = lotdekkhang.4
	title = lotdekkhang.4.t
	desc = lotdekkhang.4.d
	picture = DIPLOMACY_eventPicture
	
	trigger = {
		tag = Y58
	}
	
	is_triggered_only = yes
	fire_only_once = yes
	
	option = {
	name = lotdekkhang.4.a
		ai_chance = { 
			factor = 100 
		}
		largest_increase_of_hobgoblin_tolerance_effect = yes
		largest_increase_of_hobgoblin_tolerance_effect = yes
	}
}

country_event = {
	id = lotdekkhang.5
	title = lotdekkhang.5.t
	desc = lotdekkhang.5.d
	picture = DIPLOMACY_eventPicture
	
	is_triggered_only = yes
	fire_only_once = yes
	
	option = {
	name = lotdekkhang.5.a
		ai_chance = { 
			factor = 100 
		}
		thirabnir_area = {
			limit = {
			NOT = { is_core = ROOT }
			NOT = { owned_by = ROOT }
			}
			add_permanent_claim = ROOT
		}
		phakphon_area = {
			limit = {
				NOT = { is_core = ROOT }
				NOT = { owned_by = ROOT }
			}
			add_permanent_claim = ROOT
		}
		ngoen_area = {
			limit = {
				NOT = { is_core = ROOT }
				NOT = { owned_by = ROOT }
			}
			add_permanent_claim = ROOT
		}
		kaiden_area = {
			limit = {
				NOT = { is_core = ROOT }
				NOT = { owned_by = ROOT }
			}
			add_permanent_claim = ROOT
		}
	}
}

#Sikai Townships/Thangoya form
country_event = {
	id = lotdekkhang.6
	title = lotdekkhang.6.t
	desc = lotdekkhang.6.d
	picture = DIPLOMACY_eventPicture
	
	is_triggered_only = yes
	fire_only_once = yes
	
	option = {
	name = lotdekkhang.6.a
		ai_chance = { 
			factor = 100 
		}
		Y62 = {
			change_tag = Z62
			hidden_effect = { restore_country_name = yes }
			hidden_effect = {
				every_owned_province = {
					limit = {
						is_part_of_hre = yes
					}
					set_in_empire = no
				}
			}
			add_country_modifier = {
				name = "centralization_modifier"
				duration = 7300
				}
			add_prestige = 15
			if = {
				limit = { government = republic }
				add_government_reform = kai_republic
			}
			if = {
				limit = { has_custom_ideas = no }
				country_event = { id = ideagroups.1 } #Swap Ideas
			}
			set_country_flag = formed_thangoya_flag
		}
	}
}
#Gold mine migration
country_event = {
	id = lotdekkhang.7
	title = lotdekkhang.7.t
	desc = lotdekkhang.7.d
	picture = DIPLOMACY_eventPicture
	
	is_triggered_only = yes
	fire_only_once = yes
	
	option = {
	name = lotdekkhang.7.a
		ai_chance = {
			factor = 100 
		}
		every_country = {
			limit = {
				has_reform = wulin
			}
				country_event = { id = lotdekkhang.10 }
			}		
		4785 = {
			add_base_tax = -1 
			owner = { 
				if = { 
					limit = {
						NOT = {
							tag = A58
							tag = Y86
							tag = Z62
						}
					}
				country_event = { id = lotdekkhang.10 }
				}
			}
		}
		4782 = {
			add_base_manpower = -1
			owner = { 
				if = { 
					limit = {
						NOT = {
							tag = A58
							tag = Y86
							tag = Z62
						}
					}
				country_event = { id = lotdekkhang.10 }
				}
			}
		}
		4783 = {
			add_base_production = -1
			owner = { 
				if = { 
					limit = {
						NOT = {
							tag = A58
							tag = Y86
							tag = Z62
						}
					}
				country_event = { id = lotdekkhang.10 }
				}
			}
		}
		4935 = {
			add_base_tax = -1 
			owner = { 
				if = { 
					limit = {
						NOT = {
							tag = A58
							tag = Y86
							tag = Z62
						}
					}
				country_event = { id = lotdekkhang.10 }
				}
			}
		}
		4940 = {
			add_base_tax = 1 add_base_production = 4 add_base_manpower = 1
			add_permanent_province_modifier = {
				name = Y58_gold_production
				duration = -1
			}
		}
	}	
}

#Nephrite Rivalry
country_event = {
	id = lotdekkhang.8
	title = lotdekkhang.8.t
	desc = lotdekkhang.8.d
	picture = DIPLOMACY_eventPicture
	
	is_triggered_only = yes
	fire_only_once = yes
	
	option = {
	name = lotdekkhang.8.a
		ai_chance = {
			factor = 100
		}
		4942 = { add_permanent_claim = Z62 }
		4776 = { add_permanent_claim = Z62 }
		4775 = { add_permanent_claim = Z62 }
		4759 = { add_permanent_claim = Z62 }
		phonan_area = { add_permanent_claim = Z62 }
		ananhu_area = { add_permanent_claim = Z62 }
		phaktai_area = { add_permanent_claim = Z62 }
		reverse_add_opinion = {
			who = Y63
			modifier = lotdekkhang_claimed_my_land
		}
	}
}
#azkare sabotage angry
country_event = {
	id = lotdekkhang.9
	title = lotdekkhang.9.t
	desc = lotdekkhang.9.d
	picture = DIPLOMACY_eventPicture
	
	is_triggered_only = yes
	fire_only_once = yes
	
	option = {
		name = lotdekkhang.9.a
		ai_chance = {
			factor = 4
			modifier = {
				factor = 0
				Y58 = { has_consort = yes }
			}
			modifier = {
				factor = 0
				Y58 = { is_rival = ROOT }
			}
			modifier = {
				factor = 5
				Y58 = { alliance_with = ROOT }
			}
			modifier = {
				factor = 0
				Y86 = { ai = no }
			}
		}
		Y58 = { vassalize = ROOT }
		exile_ruler_as = Y58_mya_gf
		Y58 = { country_event = { id = lotdekkhang.49 } }
	}
	
	option = {
		name = lotdekkhang.9.b
		ai_chance = {
			factor = 4
		}
		add_opinion = {
			who = Y58
			modifier = lotdekkhang_claimed_my_land
		}
		Y58 = { country_event = { id = lotdekkhang.50 } }
	}
}

#xiaken and wulin react to gold migrations
country_event = {
	id = lotdekkhang.10
	title = lotdekkhang.10.t
	desc = lotdekkhang.10.d
	picture = DIPLOMACY_eventPicture
	
	is_triggered_only = yes
	
	option = {
	name = lotdekkhang.10.a
		ai_chance = {
			factor = 80
		}
	trigger = { has_reform = wulin }
		add_prestige = -5
		add_casus_belli = {
			target = Y58
			type = cb_insult
			months = 12
		}
	}
	option = {
	name = lotdekkhang.10.b
		ai_chance = {
			factor = 20
		}
	trigger = { has_reform = wulin }
		add_prestige = -10
	
	}
	option = {
	name = lotdekkhang.10.c
		ai_chance = {
			factor = 100
		}
	trigger = { has_reform = xiaken }
		add_prestige = -5
	}
	option = {
	name = lotdekkhang.10.e
		ai_chance = {
			factor = 100
		}
	trigger = { 
		NOT = {
			OR = {
				has_reform = xiaken
				has_reform = wulin
			}
		}
	}
		add_prestige = -5
		add_casus_belli = {
			target = Y58
			type = cb_insult
			months = 12
		}
	}
}
#thidinkai forms
country_event = {
	id = lotdekkhang.11
	title = lotdekkhang.11.t
	desc = lotdekkhang.11.d
	picture = DIPLOMACY_eventPicture
	
	is_triggered_only = yes
	fire_only_once = yes
	
	option = {
	name = lotdekkhang.11.a
		ai_chance = {
			factor = 100 
		}
		Z62 = {
			change_tag = Z63
			hidden_effect = { restore_country_name = yes }
			hidden_effect = {
				every_owned_province = {
					limit = {
						is_part_of_hre = yes
					}
					set_in_empire = no
				}
			}
			add_country_modifier = {
				name = "centralization_modifier"
				duration = 7300
				}
			add_prestige = 25
			if = {
				limit = { has_custom_ideas = no }
				country_event = { id = ideagroups.1 } #Swap Ideas
			}
			if = {
				limit = { primary_culture = binhrung }
				override_country_name = CHAKKAD_YONHRUNG
			}
			set_country_flag = formed_thidinkai_flag
			thidinkai_region = {
				limit = {
					NOT = { is_core = Z63 }
					NOT = { owned_by = Z63 }
					NOT = { owned_by = Y58 }
					NOT = { province_id = 5424 }
				}
				add_permanent_claim = Z63
			}
			non_chien_area = {
				limit = {
					NOT = { is_core = Z63 }
					NOT = { owned_by = Z63 }
					NOT = { owned_by = Y58 }
				}
				add_permanent_claim = Z63
			}
			thuongidut_area = {
				limit = {
					NOT = { is_core = Z63 }
					NOT = { owned_by = Z63 }
					NOT = { owned_by = Y58 }
				}
				add_permanent_claim = Z63
			}
		}
	}
}
#Lot Dekkhang sends demands to the Nephrites, The Fate Of The Nephrites
country_event = {
	id = lotdekkhang.12
	title = lotdekkhang.12.t
	desc = lotdekkhang.12.d
	picture = DIPLOMACY_eventPicture
	
	is_triggered_only = yes
	fire_only_once = yes
#	#tributary
#	option = {
#	name = lotdekkhang.12.a
#		ai_chance = {
#			factor = 100 
#		}
#		Y63 = {country_event = { id = lotdekkhang.13 }}
#	}
	#vassalization
	option = {
	name = lotdekkhang.12.b
		ai_chance = {
			factor = 100 
		}
		Y63 = {country_event = { id = lotdekkhang.14 }}
	}
	#surrender or die
	option = {
	name = lotdekkhang.12.c
		ai_chance = {
			factor = 100 
		}
		Y63 = {country_event = { id = lotdekkhang.15 }}
	}
}
#Nephrites receive tributary demand
country_event = {
	id = lotdekkhang.13
	title = lotdekkhang.13.t
	desc = lotdekkhang.13.d
	picture = DIPLOMACY_eventPicture
	
	is_triggered_only = yes
	fire_only_once = yes
	#accept
	option = {
	name = lotdekkhang.13.a
		ai_chance = {
			factor = 70
		}
		Y58 = {country_event = { id = lotdekkhang.16 }}
	}
	#refuse
	option = {
	name = lotdekkhang.13.b
		ai_chance = {
			factor = 30
		}
		Y58 = {country_event = { id = lotdekkhang.19 }}
	}
}
#Nephrites receive vassalization demand
country_event = {
	id = lotdekkhang.14
	title = lotdekkhang.14.t
	desc = lotdekkhang.14.d
	picture = DIPLOMACY_eventPicture
	
	is_triggered_only = yes
	fire_only_once = yes
	#accept
	option = {
	name = lotdekkhang.14.a
		ai_chance = {
			factor = 50
		}
		Y58 = {country_event = { id = lotdekkhang.17 }}
	}
	#refuse
	option = {
	name = lotdekkhang.14.b
		ai_chance = {
			factor = 50
		}
		Y58 = {country_event = { id = lotdekkhang.20 }}
	}
}
#Nephrites receive surrender demand
country_event = {
	id = lotdekkhang.15
	title = lotdekkhang.15.t
	desc = lotdekkhang.15.d
	picture = DIPLOMACY_eventPicture
	
	is_triggered_only = yes
	fire_only_once = yes
	#accept
	option = {
	name = lotdekkhang.15.a
		ai_chance = {
			factor = 10
		}
		Y58 = {country_event = { id = lotdekkhang.18 }}
	}
	#refuse
	option = {
	name = lotdekkhang.15.b
		ai_chance = {
			factor = 90
		}
		Y58 = {country_event = { id = lotdekkhang.21 }}
	}
}
#Nephrites accept to become tributary
country_event = {
	id = lotdekkhang.16
	title = lotdekkhang.16.t
	desc = lotdekkhang.16.d
	picture = DIPLOMACY_eventPicture
	
	is_triggered_only = yes
	fire_only_once = yes
	
	option = {
	name = lotdekkhang.16.a
		ai_chance = {
			factor = 100 
		}
		create_subject = {
			subject_type = tributary_state
			subject = Y63
		}
	}

}
#Nephrites accept to become vassal
country_event = {
	id = lotdekkhang.17
	title = lotdekkhang.17.t
	desc = lotdekkhang.17.d
	picture = DIPLOMACY_eventPicture
	
	is_triggered_only = yes
	fire_only_once = yes
	
	option = {
	name = lotdekkhang.17.a
		ai_chance = {
			factor = 100 
		}
		vassalize = Y63
	}

}
#Nephrites accept to surrender
country_event = {
	id = lotdekkhang.18
	title = lotdekkhang.18.t
	desc = lotdekkhang.18.d
	picture = DIPLOMACY_eventPicture
	
	is_triggered_only = yes
	fire_only_once = yes
	
	option = {
	name = lotdekkhang.18.a
		ai_chance = {
			factor = 100 
		}
		Z62 = { inherit = Y63 }
	}

}
#Nephrites refuse to become tributary
country_event = {
	id = lotdekkhang.19
	title = lotdekkhang.19.t
	desc = lotdekkhang.19.d
	picture = DIPLOMACY_eventPicture
	
	is_triggered_only = yes
	fire_only_once = yes
	
	option = {
	name = lotdekkhang.19.a
		ai_chance = {
			factor = 100 
		}
		add_casus_belli = {
			target = Y63
			type = cb_vassalize_mission
			months = 120
		}
	}

}
#Nephrites refuse to become vassal
country_event = {
	id = lotdekkhang.20
	title = lotdekkhang.20.t
	desc = lotdekkhang.20.d
	picture = DIPLOMACY_eventPicture
	
	is_triggered_only = yes
	fire_only_once = yes
	
	option = {
	name = lotdekkhang.20.a
		ai_chance = {
			factor = 100 
		}
		add_casus_belli = {
			target = Y63
			type = cb_vassalize_mission
			months = 120
		}
	}

}
#Nephrites refuse to surrender
country_event = {
	id = lotdekkhang.21
	title = lotdekkhang.21.t
	desc = lotdekkhang.21.d
	picture = DIPLOMACY_eventPicture
	
	is_triggered_only = yes
	fire_only_once = yes
	
	option = {
	name = lotdekkhang.21.a
		ai_chance = {
			factor = 100 
		}
		Z62 = { 
			5424 = {
				add_permanent_claim = Z62
			}
		}
		5424 = {
				add_permanent_claim = ROOT
		}
	}
}

#Sunlight Lancers
country_event = {
	id = lotdekkhang.22
	title = lotdekkhang.22.t
	desc = lotdekkhang.22.d
	picture = DIPLOMACY_eventPicture
	
	fire_only_once = yes
	trigger = {
		tag = Y58
		owns_or_subject_of = 4789
		owns_or_subject_of = 5424
	}
	option = {
	name = lotdekkhang.22.a
		ai_chance = {
			factor = 100 
		}
		set_country_flag = lotdekkhang_sunlight_lancers_mercs_flag
		custom_tooltip = lotdekkhang_sunlight_lancers_mercs_reward_tt
		
	}
}

#Lot_dekkhang_merc_feast start speech
country_event = {
	id = lotdekkhang.23
	title = lotdekkhang.23.t
	desc = lotdekkhang.23.d
	picture = DIPLOMACY_eventPicture
	
	is_triggered_only = yes

	#emphasise the importance of the daulophs
	option = {
	name = lotdekkhang.23.a
		ai_chance = {
			factor = 100
		}
		add_estate_loyalty = {
				estate = estate_daulophs
				loyalty = 5
		}
		country_event = { id = lotdekkhang.24 days = 2 }
	}
	#emphasise the successes of the realm
	option = {
	name = lotdekkhang.23.b
		ai_chance = {
			factor = 100
		}
		add_prestige = 5
		country_event = { id = lotdekkhang.24 days = 2 }
	}
	#emphasise support of all mercenary companies
	option = {
	name = lotdekkhang.23.c
		ai_chance = {
			factor = 100
		}
		add_country_modifier = {
			name= "Y58_lot_dekkhang_mercs_speech"
			duration = 1825
		}
		country_event = { id = lotdekkhang.24 days = 2 }
	}
}

#Lot_dekkhang_merc_feast ending
country_event = {
	id = lotdekkhang.24
	title = lotdekkhang.24.t
	desc = lotdekkhang.24.d
	picture = DIPLOMACY_eventPicture
	
	is_triggered_only = yes
	

	#chat with daulophs
	option = {
	name = lotdekkhang.24.a
		ai_chance = {
			factor = 100
		}
		add_estate_loyalty = {
				estate = estate_daulophs
				loyalty = 10
			}
		add_estate_influence_modifier = {
			estate = estate_daulophs
			desc = "Deep Talk With Lot Dekkhang At Feast: "
			influence = 5
			duration = 1825
		}
		hidden_effect = {
			country_event = { id = lotdekkhang.25 days = 1800 }
		}
	}
	#chat with foreign merc captains
	option = {
	name = lotdekkhang.24.b
		ai_chance = {
			factor = 100
		}
		add_country_modifier = {
			name = Y58_lot_dekkhang_chatted_with_merc_captains
			duration = 1825
		}
	}
	#chat with guests you don't recognize
	option = {
	name = lotdekkhang.24.c
		ai_chance = {
			factor = 100 
		}
		add_country_modifier = {
			name = Y58_lot_dekkhang_inspired_common_mercs
			duration = 1825
		}
	}
}

#merc feast hostable again
country_event = {
	id = lotdekkhang.25
	title = lotdekkhang.25.t
	desc = lotdekkhang.25.d
	picture = DIPLOMACY_eventPicture
	
	is_triggered_only = yes
	
	option = {
		name = lotdekkhang.25.a
		ai_chance = {
			factor = 100 
		}
		add_prestige = 1
		hidden_effect = {
			clr_country_flag = lot_dekkhang_merc_feast
			remove_estate_privilege = estate_daulophs_grand_mercenary_feast
		}
	}
}

#Bim Lau repairs
country_event = {
	id = lotdekkhang.26
	title = lotdekkhang.26.t
	desc = lotdekkhang.26.d
	picture = DIPLOMACY_eventPicture
	
	is_triggered_only = yes
	
	#big repairs
	option = {
		name = lotdekkhang.26.a
		ai_chance = {
			factor = 100 
		}
		add_treasury = -100
		add_prestige = 10
		every_province = {
			LIMIT = {
				owned_by = ROOT
				culture = ranilau
			}
			add_province_modifier = {
				name = Y58_lot_dekkhang_bim_lau_big
				duration = 3650
			}
		}
	}
	
	#small repairs
	option = {
		name = lotdekkhang.26.b
		ai_chance = {
			factor = 100 
		}
		add_treasury = -50
		add_prestige = 5
		every_province = {
			LIMIT = {
				owned_by = ROOT
				culture = ranilau
			}
			add_province_modifier = {
				name = Y58_lot_dekkhang_bim_lau_small
				duration = 3650
			}
		}
	}
	
	#no repairs
	option = {
		name = lotdekkhang.26.c
		ai_chance = {
			factor = 100 
		}
		add_prestige = -5
		every_province = {
			LIMIT = {
				owned_by = ROOT
				culture = ranilau
			}
			add_province_modifier = {
				name = Y58_lot_dekkhang_bim_lau_no
				duration = 3650
			}
		}
		
	}
}

#Thikvot Rebellion
country_event = {
	id = lotdekkhang.28
	title = lotdekkhang.28.t
	desc = lotdekkhang.28.d
	picture = DIPLOMACY_eventPicture
	
	is_triggered_only = yes
	#He Preahsang government rejects rebellion and informs nearby wulin officials
	option = {
		name = lotdekkhang.28.a
		ai_chance = {
			factor = 100 
		}
		4793 = {
			add_core = Y58
			spawn_rebels = {
				type = nationalist_rebels
				size = 5
				friend = Y58
				culture = teplin
			}
		}
	}
}

#teplin faiths
country_event = {
	id = lotdekkhang.29
	title = lotdekkhang.29.t
	desc = lotdekkhang.29.d
	picture = DIPLOMACY_eventPicture
	
	is_triggered_only = yes
	
	option = {
		name = lotdekkhang.29.a
		ai_chance = {
			factor = 100 
		}
		add_country_modifier = {
			name = "Y58_lot_dekkhang_teplinbasiet_temple"
			duration = -1
		}
	}
}

#The Jungle People
country_event = {
	id = lotdekkhang.30
	title = lotdekkhang.30.t
	desc = lotdekkhang.30.d
	picture = DIPLOMACY_eventPicture
	
	is_triggered_only = yes
	
	option = {
		name = lotdekkhang.30.a
		ai_chance = {
			factor = 100 
		}
			set_country_flag = lotdekkhang_risbeko_junglers_mercs_flag
			custom_tooltip = lotdekkhang_risbeko_junglers_mercs_flag_tt
			banhlubei_area = { add_permanent_claim = ROOT }
			4802 = { add_permanent_claim = ROOT }
			4588 = { add_permanent_claim = ROOT }
			4581 = { add_permanent_claim = ROOT }
			4579 = { add_permanent_claim = ROOT }
			4572 = { add_permanent_claim = ROOT }
			4566 = { add_permanent_claim = ROOT }
			4567 = { add_permanent_claim = ROOT }
			4568 = { add_permanent_claim = ROOT }
		
	}
}

#Prukakhin Raiders
country_event = {
	id = lotdekkhang.31
	title = lotdekkhang.31.t
	desc = lotdekkhang.31.d
	picture = DIPLOMACY_eventPicture
	
	is_triggered_only = yes
	#raiding time
	option = {
		name = lotdekkhang.31.a
		ai_chance = {
			factor = 50
		}
		add_country_modifier = {
			name = "Y58_lot_dekkhang_prukakhin_raiders"
			duration = -1
		}
	}
	#the mercs, hand them over
	option = {
		name = lotdekkhang.31.b
		ai_chance = {
			factor = 50
		}
		set_country_flag = lotdekkhang_prukakhin_raiders_flag
		custom_tooltip = lotdekkhang_prukakhin_raiders_mercs_flag_tt
		}
}

#Swallow Hobgoblins
country_event = {
	id = lotdekkhang.32
	title = lotdekkhang.32.t
	desc = lotdekkhang.32.d
	picture = DIPLOMACY_eventPicture
	
	is_triggered_only = yes
	option = {
		name = lotdekkhang.32.a
		ai_chance = {
			factor = 50
		}
		4797 = { change_culture = swallow_command change_religion = godlost add_base_manpower = 5 }
		4941 = { remove_hobgoblin_minority_size_effect = yes }
		add_accepted_culture = swallow_command
		set_country_flag = lotdekkhang_swallows_flag
		custom_tooltip = lotdekkhang_swallows_mercs_flag_tt
		add_country_modifier = {
			name = "Y58_lot_dekkhang_custodians_swallows"
			duration = -1
		}
	}

}

#the plan to catch em
country_event = {
	id = lotdekkhang.33
	title = lotdekkhang.33.t
	desc = lotdekkhang.33.d
	picture = DIPLOMACY_eventPicture
	
	is_triggered_only = yes
	option = {
		name = lotdekkhang.33.a
		ai_chance = {
			factor = 50
		}
		add_years_of_income = -0.2
		add_mil_power = -50
		country_event = { id = lotdekkhang.39 days = 30 }
	}
	
	option = {
		name = lotdekkhang.33.b
		ai_chance = {
			factor = 50
		}
		small_decrease_of_hobgoblin_tolerance_effect = yes
		country_event = { id = lotdekkhang.39 days = 30 }
	}

}

#"Hobgoblins In Disarray"
country_event = {
	id = lotdekkhang.34
	title = lotdekkhang.34.t
	desc = lotdekkhang.34.d
	picture = DIPLOMACY_eventPicture
	
	is_triggered_only = yes
	option = {
		name = lotdekkhang.34.a
		ai_chance = {
			factor = 50
		}
		random_hired_mercenary_company = {
				LIMIT = { home_province = { 
					province_id = 4941 } }
						kill_mercenary_leader = THIS
				add_company_manpower = -0.1
			}
		country_event = { id = lotdekkhang.37 days = 30 }
	}
}

#"Hobgoblins In Disarray2"
country_event = {
	id = lotdekkhang.35
	title = lotdekkhang.35.t
	desc = lotdekkhang.35.d
	picture = DIPLOMACY_eventPicture
	
	is_triggered_only = yes
	option = {
		name = lotdekkhang.35.a
		ai_chance = {
			factor = 50
		}
		random_hired_mercenary_company = {
				LIMIT = { home_province = { 
					province_id = 4941 }}
						kill_mercenary_leader = THIS
				add_company_manpower = -0.1
			}
		random_hired_mercenary_company = {
				LIMIT = { home_province = { 
					province_id = 4797 }}
						kill_mercenary_leader = THIS
				add_company_manpower = -0.1
			}
			country_event = { id = lotdekkhang.38 days = 30 }
	}
}

#hobgoblin mystery1
country_event = {
	id = lotdekkhang.36
	title = lotdekkhang.36.t
	desc = lotdekkhang.36.d
	picture = DIPLOMACY_eventPicture
	
	is_triggered_only = yes
	
	option = {
		name = lotdekkhang.36.a
		ai_chance = {
			factor = 100
		}
		highlight = yes
		trigger = {
			ruler_has_personality = well_connected_personality
		}
		required_personality = well_connected_personality
		add_adm_power = -20
		add_mil_power = -20
		add_treasury = -20
		country_event = { id = lotdekkhang.34 days = 30 }
	}
	
	option = {
		name = lotdekkhang.36.b
		ai_chance = {
			factor = 100
		}
		highlight = yes
		trigger = {
			ruler_has_personality = well_advised_personality
		}
		required_personality = well_advised_personality
		add_adm_power = -20
		add_mil_power = -20
		add_treasury = -20
		country_event = { id = lotdekkhang.34 days = 30 }
	}
	
	option = {
		name = lotdekkhang.36.c
		ai_chance = {
			factor = 100
		}
		highlight = yes
		trigger = {
			ruler_has_personality = careful_personality
		}
		required_personality = careful_personality
		add_adm_power = -20
		add_mil_power = -20
		add_treasury = -20
		country_event = { id = lotdekkhang.34 days = 30 }
	}
	
	option = {
		name = lotdekkhang.36.e
		ai_chance = {
			factor = 100
		}
		highlight = yes
		trigger = {
			ruler_has_personality = secretive_personality
		}
		required_personality = secretive_personality
		add_adm_power = -20
		add_mil_power = -20
		add_treasury = -20
		country_event = { id = lotdekkhang.34 days = 30 }
	}
	
	option = {
		name = lotdekkhang.36.f
		ai_chance = {
			factor = 100
		}
		highlight = yes
		trigger = {
			ruler_has_personality = tactical_genius_personality
		}
		required_personality = tactical_genius_personality
		add_adm_power = -20
		add_mil_power = -20
		add_treasury = -20
		country_event = { id = lotdekkhang.34 days = 30 }
	}
	option = {
		name = lotdekkhang.36.g
		ai_chance = {
			factor = 0
		}
		add_adm_power = -20
		add_mil_power = -20
		add_treasury = -20
		country_event = { id = lotdekkhang.35 days = 30 }
	}
}

#it went ok
country_event = {
	id = lotdekkhang.37
	title = lotdekkhang.37.t
	desc = lotdekkhang.37.d
	picture = DIPLOMACY_eventPicture
	
	is_triggered_only = yes
	option = {
		name = lotdekkhang.37.a
		ai_chance = {
			factor = 50
		}
		
			country_event = { id = lotdekkhang.33 days = 30 }
	}
}

#it went pretty poorly
country_event = {
	id = lotdekkhang.38
	title = lotdekkhang.38.t
	desc = lotdekkhang.38.d
	picture = DIPLOMACY_eventPicture
	
	is_triggered_only = yes
	option = {
		name = lotdekkhang.38.a
		ai_chance = {
			factor = 50
		}
		add_prestige = -10
			country_event = { id = lotdekkhang.33 days = 30 }
	}
}

#this means war
country_event = {
	id = lotdekkhang.39
	title = lotdekkhang.39.t
	desc = lotdekkhang.39.d
	picture = DIPLOMACY_eventPicture
	
	is_triggered_only = yes
	option = {
		name = lotdekkhang.39.a
		ai_chance = {
			factor = 50
		}
		add_prestige = 10
		set_country_flag = Y58_solved_crimes
	}
}

#Dekk daulophs
country_event = {
	id = lotdekkhang.40
	title = lotdekkhang.40.t
	desc = lotdekkhang.40.d
	picture = DIPLOMACY_eventPicture
	
	is_triggered_only = yes
	option = {
		name = lotdekkhang.40.a
		ai_chance = {
			factor = 50
		}
		set_country_flag = lotdekkhang_dekk_daulophs_mercs_flag
		custom_tooltip = lotdekkhang_dekk_daulophs_mercs_reward_tt
	}
}

#Teplin Tigers
country_event = {
	id = lotdekkhang.41
	title = lotdekkhang.41.t
	desc = lotdekkhang.41.d
	picture = DIPLOMACY_eventPicture
	
	is_triggered_only = yes
	option = {
		name = lotdekkhang.41.a
		ai_chance = {
			factor = 100
		}
		4796 = { change_culture = east_harimari add_base_manpower = 5 }
		4941 = { remove_harimari_minority_size_effect = yes }
		add_accepted_culture = east_harimari
		set_country_flag = lotdekkhang_teplin_tigers_flag
		custom_tooltip = lotdekkhang_teplin_tigers_mercs_flag_tt
		add_country_modifier = {
			name = "Y58_lot_dekkhang_custodians_teplin_tigers"
			duration = -1
		}
	}
}

#Teplinbasiet renovated
country_event = {
	id = lotdekkhang.42
	title = lotdekkhang.42.t
	desc = lotdekkhang.42.d
	picture = DIPLOMACY_eventPicture
	
	is_triggered_only = yes
	option = {
		name = lotdekkhang.42.a
		ai_chance = {
			factor = 100
		}
		if = {
			limit = { NOT = { 4941 = { has_building = cathedral } } }
		4941 = { add_building = cathedral }
		}
		else = { 4941 = { add_base_tax = 5 } }
		hidden_effect = {
		4941 = { remove_province_modifier =  Y58_lot_dekkhang_teplinbasiet1  }
		}
		4941 = { add_permanent_province_modifier = {
			name = "Y58_lot_dekkhang_teplinbasiet2"
			duration = -1
		} }
	}
}

#Great Weapon Market
country_event = {
	id = lotdekkhang.43
	title = lotdekkhang.43.t
	desc = lotdekkhang.43.d
	picture = DIPLOMACY_eventPicture
	
	is_triggered_only = yes
	option = {
		name = lotdekkhang.43.a
		ai_chance = {
			factor = 100
		}
		4941 = { 
			add_base_manpower = 2 
			add_base_tax = 2 
			add_base_production = 2  
			if = {
				limit = { 	province_has_center_of_trade_of_level = 3 }
				add_base_production = 4 
			}
			else = {
			add_center_of_trade_level = 1 
			}
		add_permanent_province_modifier = {
			name = "Y58_lot_dekkhang_great_weapon_market"
			duration = -1
		} }
		add_mercantilism = 5
	}
}

#Khram Ptaa Academy
country_event = {
	id = lotdekkhang.44
	title = lotdekkhang.44.t
	desc = lotdekkhang.44.d
	picture = DIPLOMACY_eventPicture
	
	is_triggered_only = yes
	option = {
		name = lotdekkhang.44.a
		ai_chance = {
			factor = 100
		}
		if = {
			limit = { 4941 = { owned_by = root NOT = { has_building = university } } }
			4941 = { add_building = university }
		}
		else = { 4941 = { add_base_manpower = 2 add_base_tax = 2 } }
		4941 = { 
			add_permanent_province_modifier = {
			name = "Y58_lot_dekkhang_khram_ptaa_academy"
			duration = -1
			} 
		}
		add_army_tradition = 10
	}
}
#Command shattering
country_event = {
	id = lotdekkhang.45
	title = lotdekkhang.45.t
	desc = lotdekkhang.45.d
	picture = DIPLOMACY_eventPicture
	
	fire_only_once = yes

	trigger = {
		tag = Y58
		R62 = { 
			is_subject_of = Y58 
		}
	}
	
	mean_time_to_happen = {
		days = 1 }
	
	option = {
		name = lotdekkhang.45.a
		ai_chance = { factor = 100 }
		if = {
			limit = { 
				R62 = { 
					has_country_modifier = monstrous_nation  
					NOT = { has_country_flag = removing_monstrous }
					NOT = { has_country_flag = no_longer_monstrous }
				}
			}
			R62 = {
				hidden_effect = { set_country_flag = removing_monstrous }
				hidden_effect = { 
					if = {
						limit = { has_country_flag = semi_monstrous }
						set_variable = { monstrousPoints = 30 }
					}
					else = { set_variable = { monstrousPoints = 30 } }
				}

				custom_tooltip = start_demonsterization
			}
		}
		R62 = {
			change_primary_culture = swallow_command
			remove_opinion = {
				who = Y58
				modifier = they_force_unioned_us
			}
			4630 = { change_culture = swallow_command }
			every_owned_province = {
				limit = { OR = { culture = lion_command culture = boar_command culture = wolf_command  } }
			add_unrest = 20
			}
		}
		jade_mines_region = {
			discover_country = ROOT
		}
	}
}

#Migration Treaty
country_event = {
	id = lotdekkhang.46
	title = lotdekkhang.46.t
	desc = lotdekkhang.46.d
	picture = DIPLOMACY_eventPicture
	
	is_triggered_only = yes
	option = {
		name = lotdekkhang.46.a
		ai_chance = {
			factor = 100
		}
		every_owned_province = {
			limit = {
				OR = {
					area = dekphre_area
					area = sadramver_area
				}
			}
			add_base_manpower = 1
			add_base_tax = 1
			add_hobgoblin_minority_size_effect = yes
			add_prosperity = -1
		}
		random_hired_mercenary_company = {
				LIMIT = { home_province = { 
					province_id = 4941 } }
				add_company_manpower = 1
		}
		random_hired_mercenary_company = {
				LIMIT = { home_province = { 
					province_id = 4797 } }
				add_company_manpower = 1
		}
		R62 = {
			every_owned_province = {
				limit = {
					OR = {
						culture = boar_command
						culture = lion_command
						culture = wolf_command
					}
				}
				add_base_manpower = -1
				add_base_tax = -1
				add_prosperity = -1
			}
		}
	}
}

#Hobgoblin camp
country_event = {
	id = lotdekkhang.47
	title = lotdekkhang.47.t
	desc = lotdekkhang.47.d
	picture = DIPLOMACY_eventPicture
	
	is_triggered_only = yes
	option = {
		name = lotdekkhang.47.a
		ai_chance = {
			factor = 100
		}
		4797 = {
			add_base_manpower = 2 
			add_base_tax = 2
			add_province_modifier = {
			name = "Y58_lot_dekkhang_hobgoblin_camp"
			duration = -1
			} 
		}
		add_army_tradition = -10
	}
}

#Swallow Hobgoblins
country_event = {
	id = lotdekkhang.48
	title = lotdekkhang.48.t
	desc = lotdekkhang.48.d
	picture = DIPLOMACY_eventPicture
	
	is_triggered_only = yes
	option = {
		name = lotdekkhang.48.a
		ai_chance = {
			factor = 50
		}
		4605 = { change_culture = brown_orc change_religion = old_dookan add_base_manpower = 5 }
		add_accepted_culture = brown_orc
		set_country_flag = lotdekkhang_bloodfists_flag
		custom_tooltip = lotdekkhang_bloodfists_flag_tt
		add_country_modifier = {
			name = "Y58_lot_dekkhang_custodians_borcs"
			duration = -1
		}
	}
}

#Mya accepts marriage
country_event = {
	id = lotdekkhang.49
	title = lotdekkhang.49.t
	desc = lotdekkhang.49.d
	picture = DIPLOMACY_eventPicture
	
	is_triggered_only = yes

	option = {
		name = lotdekkhang.49.a
		ai_chance = {
			factor = 50
		}
		define_consort = {
			name = "Mya Aktamakhang"
			country_of_origin = Y62
			religion = righteous_path
			culture = sikai
			adm = 3
			dip = 6
			mil = 3
			female = yes
			age = 22
		}
	}
}

#Mya refuses marriage
country_event = {
	id = lotdekkhang.50
	title = lotdekkhang.50.t
	desc = lotdekkhang.50.d
	picture = DIPLOMACY_eventPicture
	
	is_triggered_only = yes

	option = {
		name = lotdekkhang.50.a
		ai_chance = {
			factor = 50
		}
		add_casus_belli = {
			type = cb_vassalize_mission
			months = 300
			target = Y62
		}
	}
}

